path_to_data /home/wagner/Documents/Fit/systematics/flo_53waves_best_11tbins/
path_to_theory /localhome/wagner/Documents/Fit/data/datapoints/theory/
path_to_phase_space utils/phase_space/
path_to_output output/

file_waves utils/waves_bw.dat
file_tprimes utils/tprimes.dat
file_particles utils/particles.dat
file_theory utils/theory.dat

file_parameters utils/minima/new_result_bw.pars

data_type sym
phase_space_type sym
chi2_function chi2sym
maximal_chi2 1e+10
maximal_tries 1

minimizer_print_level 2
minimizer_tolerance 1e-30


// the following stuff is not needed (but also doesn't disturb)
// in case you want to use this as an optionfile for a new run.
option_file /home/wagner/Documents/Fit/mfitter/utils/syst_options/options_bw_flo_53waves_best_11tbins.opt
Random seed 1571379188793897679
Chi2 23001
R2part 3271.98
EDM 1.16103e-07
Number of parameters 147
Status 3

Starting parameters of the minimizer:
// Index	Name			Fixed	Value
0	a1_1260_M			free	1.32337
1	a1_1260_G			free	0.388028
2	A_amp_abs_WrhopiS_t0		free	930.554
3	A_amp_abs_WrhopiS_t1		free	1089.6
4	A_amp_abs_WrhopiS_t2		free	1077.1
5	A_amp_abs_WrhopiS_t3		free	1061.8
6	A_amp_abs_WrhopiS_t4		free	1059.35
7	A_amp_abs_WrhopiS_t5		free	1056.11
8	A_amp_abs_WrhopiS_t6		free	1058
9	A_amp_abs_WrhopiS_t7		free	1042.56
10	A_amp_abs_WrhopiS_t8		free	1012.38
11	A_amp_abs_WrhopiS_t9		free	915.549
12	A_amp_abs_WrhopiS_t10		free	636.154
13	A_amp_arg_WrhopiS_t0		free	44.5942
14	A_amp_arg_WrhopiS_t1		free	39.1622
15	A_amp_arg_WrhopiS_t2		free	35.6287
16	A_amp_arg_WrhopiS_t3		free	32.7072
17	A_amp_arg_WrhopiS_t4		free	27.9901
18	A_amp_arg_WrhopiS_t5		free	22.7151
19	A_amp_arg_WrhopiS_t6		free	16.8795
20	A_amp_arg_WrhopiS_t7		free	10.4512
21	A_amp_arg_WrhopiS_t8		free	3.24722
22	A_amp_arg_WrhopiS_t9		free	-3.13306
23	A_amp_arg_WrhopiS_t10		free	-6.64527
24	b0rhopiS			free	0.309467
25	c0rhopiS			free	4.00808
26	c1rhopiS			free	-9.65219
27	c2rhopiS			free	10.8321
28	a_bgd_abs_WrhopiS_t0		free	2762.82
29	a_bgd_abs_WrhopiS_t1		free	2237.6
30	a_bgd_abs_WrhopiS_t2		free	2036.09
31	a_bgd_abs_WrhopiS_t3		free	1821.3
32	a_bgd_abs_WrhopiS_t4		free	1599.5
33	a_bgd_abs_WrhopiS_t5		free	1362.92
34	a_bgd_abs_WrhopiS_t6		free	1082.68
35	a_bgd_abs_WrhopiS_t7		free	789.224
36	a_bgd_abs_WrhopiS_t8		free	491.912
37	a_bgd_abs_WrhopiS_t9		free	217.583
38	a_bgd_abs_WrhopiS_t10		free	30.9466
39	a_bgd_arg_WrhopiS_t0		free	19.1125
40	a_bgd_arg_WrhopiS_t1		free	17.9624
41	a_bgd_arg_WrhopiS_t2		free	16.7766
42	a_bgd_arg_WrhopiS_t3		free	16.329
43	a_bgd_arg_WrhopiS_t4		free	13.8404
44	a_bgd_arg_WrhopiS_t5		free	11.2429
45	a_bgd_arg_WrhopiS_t6		free	7.90541
46	a_bgd_arg_WrhopiS_t7		free	4.21593
47	a_bgd_arg_WrhopiS_t8		free	-0.449842
48	a_bgd_arg_WrhopiS_t9		free	-2.19125
49	a_bgd_arg_WrhopiS_t10		free	10.6012
50	a1_1420_M			free	1.4194
51	a1_1420_G			free	0.160363
52	A_amp_abs_Wf0piP_t0		free	84.1269
53	A_amp_abs_Wf0piP_t1		free	77.7721
54	A_amp_abs_Wf0piP_t2		free	71.7161
55	A_amp_abs_Wf0piP_t3		free	75.9419
56	A_amp_abs_Wf0piP_t4		free	76.5605
57	A_amp_abs_Wf0piP_t5		free	79.7635
58	A_amp_abs_Wf0piP_t6		free	75.1799
59	A_amp_abs_Wf0piP_t7		free	68.3107
60	A_amp_abs_Wf0piP_t8		free	72.5394
61	A_amp_abs_Wf0piP_t9		free	69.582
62	A_amp_abs_Wf0piP_t10		free	48.7319
63	A_amp_arg_Wf0piP_t0		free	-27.591
64	A_amp_arg_Wf0piP_t1		free	-38.887
65	A_amp_arg_Wf0piP_t2		free	-35.5841
66	A_amp_arg_Wf0piP_t3		free	-32.35
67	A_amp_arg_Wf0piP_t4		free	-32.0757
68	A_amp_arg_Wf0piP_t5		free	-33.7006
69	A_amp_arg_Wf0piP_t6		free	-29.3718
70	A_amp_arg_Wf0piP_t7		free	-24.6536
71	A_amp_arg_Wf0piP_t8		free	-26.0942
72	A_amp_arg_Wf0piP_t9		free	-24.2106
73	A_amp_arg_Wf0piP_t10		free	-25.3019
74	c0f0piP				free	12.5933
75	a_bgd_abs_Wf0piP_t0		free	446.122
76	a_bgd_abs_Wf0piP_t1		free	475.665
77	a_bgd_abs_Wf0piP_t2		free	438.443
78	a_bgd_abs_Wf0piP_t3		free	452.302
79	a_bgd_abs_Wf0piP_t4		free	462.289
80	a_bgd_abs_Wf0piP_t5		free	472.439
81	a_bgd_abs_Wf0piP_t6		free	438.098
82	a_bgd_abs_Wf0piP_t7		free	389.879
83	a_bgd_abs_Wf0piP_t8		free	420.381
84	a_bgd_abs_Wf0piP_t9		free	393.207
85	a_bgd_abs_Wf0piP_t10		free	290.971
86	a_bgd_arg_Wf0piP_t0		free	-161.962
87	a_bgd_arg_Wf0piP_t1		free	-169.781
88	a_bgd_arg_Wf0piP_t2		free	-170.062
89	a_bgd_arg_Wf0piP_t3		free	-160.608
90	a_bgd_arg_Wf0piP_t4		free	-157.232
91	a_bgd_arg_Wf0piP_t5		free	-154.265
92	a_bgd_arg_Wf0piP_t6		free	-155.914
93	a_bgd_arg_Wf0piP_t7		free	-150.584
94	a_bgd_arg_Wf0piP_t8		free	-136.841
95	a_bgd_arg_Wf0piP_t9		free	-124.107
96	a_bgd_arg_Wf0piP_t10		free	-101.694
97	a2_1320_M			free	1.31825
98	a2_1320_G			free	0.116032
99	A_amp_abs_WrhopiD_t0		free	304.316
100	A_amp_abs_WrhopiD_t1		free	268.844
101	A_amp_abs_WrhopiD_t2		free	285.339
102	A_amp_abs_WrhopiD_t3		free	303.889
103	A_amp_abs_WrhopiD_t4		free	324.468
104	A_amp_abs_WrhopiD_t5		free	350.522
105	A_amp_abs_WrhopiD_t6		free	379.713
106	A_amp_abs_WrhopiD_t7		free	414.427
107	A_amp_abs_WrhopiD_t8		free	457.353
108	A_amp_abs_WrhopiD_t9		free	501.519
109	A_amp_abs_WrhopiD_t10		free	-459.325
110	A_amp_arg_WrhopiD_t0		fixed	0
111	A_amp_arg_WrhopiD_t1		fixed	0
112	A_amp_arg_WrhopiD_t2		fixed	0
113	A_amp_arg_WrhopiD_t3		fixed	0
114	A_amp_arg_WrhopiD_t4		fixed	0
115	A_amp_arg_WrhopiD_t5		fixed	0
116	A_amp_arg_WrhopiD_t6		fixed	0
117	A_amp_arg_WrhopiD_t7		fixed	0
118	A_amp_arg_WrhopiD_t8		fixed	0
119	A_amp_arg_WrhopiD_t9		fixed	0
120	A_amp_arg_WrhopiD_t10		fixed	0
121	b0rhopiD			free	5.88981e-10
122	c0rhopiD			free	2.48048
123	c1rhopiD			free	3.66028
124	c2rhopiD			free	-3.2364
125	a_bgd_abs_WrhopiD_t0		free	591.329
126	a_bgd_abs_WrhopiD_t1		free	175.206
127	a_bgd_abs_WrhopiD_t2		free	186.996
128	a_bgd_abs_WrhopiD_t3		free	190.825
129	a_bgd_abs_WrhopiD_t4		free	209.297
130	a_bgd_abs_WrhopiD_t5		free	240.14
131	a_bgd_abs_WrhopiD_t6		free	280.177
132	a_bgd_abs_WrhopiD_t7		free	347.425
133	a_bgd_abs_WrhopiD_t8		free	461.312
134	a_bgd_abs_WrhopiD_t9		free	619.412
135	a_bgd_abs_WrhopiD_t10		free	-869.554
136	a_bgd_arg_WrhopiD_t0		free	-2.66533
137	a_bgd_arg_WrhopiD_t1		free	-3.18297
138	a_bgd_arg_WrhopiD_t2		free	-3.9153
139	a_bgd_arg_WrhopiD_t3		free	-8.49784
140	a_bgd_arg_WrhopiD_t4		free	-13.0051
141	a_bgd_arg_WrhopiD_t5		free	-18.5601
142	a_bgd_arg_WrhopiD_t6		free	-26.0289
143	a_bgd_arg_WrhopiD_t7		free	-33.2859
144	a_bgd_arg_WrhopiD_t8		free	-35.3547
145	a_bgd_arg_WrhopiD_t9		free	-40.0076
146	a_bgd_arg_WrhopiD_t10		free	-398.636

Final parameters of the minimizer:
// Index	Name			Fixed	Value	Error
0	a1_1260_M			free	1.29756	0.000613388
1	a1_1260_G			free	0.347169	0.00126578
2	A_amp_abs_WrhopiS_t0		free	894.854	7.25933
3	A_amp_abs_WrhopiS_t1		free	866.822	6.86226
4	A_amp_abs_WrhopiS_t2		free	833.303	6.41788
5	A_amp_abs_WrhopiS_t3		free	809.551	6.03146
6	A_amp_abs_WrhopiS_t4		free	782.067	5.68409
7	A_amp_abs_WrhopiS_t5		free	757.419	5.39019
8	A_amp_abs_WrhopiS_t6		free	727.468	5.09945
9	A_amp_abs_WrhopiS_t7		free	695.84	5.10689
10	A_amp_abs_WrhopiS_t8		free	648.484	5.21229
11	A_amp_abs_WrhopiS_t9		free	485.81	5.03938
12	A_amp_abs_WrhopiS_t10		free	-202.404	1.35395
13	A_amp_arg_WrhopiS_t0		free	35.7808	0.436387
14	A_amp_arg_WrhopiS_t1		free	33.473	0.442955
15	A_amp_arg_WrhopiS_t2		free	31.9687	0.445452
16	A_amp_arg_WrhopiS_t3		free	29.0796	0.445117
17	A_amp_arg_WrhopiS_t4		free	25.906	0.445993
18	A_amp_arg_WrhopiS_t5		free	22.9499	0.447952
19	A_amp_arg_WrhopiS_t6		free	18.8638	0.450329
20	A_amp_arg_WrhopiS_t7		free	14.2869	0.449323
21	A_amp_arg_WrhopiS_t8		free	8.78715	0.447516
22	A_amp_arg_WrhopiS_t9		free	4.0097	0.477831
23	A_amp_arg_WrhopiS_t10		free	5.09683	0.514921
24	b0rhopiS			free	0.446317	0.0129288
25	c0rhopiS			free	3.64751	0.0260144
26	c1rhopiS			free	-5.38553	0.188461
27	c2rhopiS			free	-0.179201	0.442558
28	a_bgd_abs_WrhopiS_t0		free	2197.62	10.6971
29	a_bgd_abs_WrhopiS_t1		free	2050.25	10.1729
30	a_bgd_abs_WrhopiS_t2		free	1892.94	9.73891
31	a_bgd_abs_WrhopiS_t3		free	1739.82	9.41864
32	a_bgd_abs_WrhopiS_t4		free	1579.07	9.16973
33	a_bgd_abs_WrhopiS_t5		free	1390.27	9.0256
34	a_bgd_abs_WrhopiS_t6		free	1166.06	8.9024
35	a_bgd_abs_WrhopiS_t7		free	926.499	9.29392
36	a_bgd_abs_WrhopiS_t8		free	614.986	9.8507
37	a_bgd_abs_WrhopiS_t9		free	237.579	9.88797
38	a_bgd_abs_WrhopiS_t10		free	10.8306	1.30804
39	a_bgd_arg_WrhopiS_t0		free	20.412	0.34958
40	a_bgd_arg_WrhopiS_t1		free	20.7897	0.339996
41	a_bgd_arg_WrhopiS_t2		free	22.3562	0.332288
42	a_bgd_arg_WrhopiS_t3		free	22.2898	0.327585
43	a_bgd_arg_WrhopiS_t4		free	22.8294	0.326989
44	a_bgd_arg_WrhopiS_t5		free	24.0344	0.336229
45	a_bgd_arg_WrhopiS_t6		free	25.7479	0.354452
46	a_bgd_arg_WrhopiS_t7		free	28.3714	0.401219
47	a_bgd_arg_WrhopiS_t8		free	33.8822	0.504741
48	a_bgd_arg_WrhopiS_t9		free	49.2612	0.731167
49	a_bgd_arg_WrhopiS_t10		free	25.7204	4.56862
50	a1_1420_M			free	1.4123	0.000565688
51	a1_1420_G			free	0.140287	0.00131775
52	A_amp_abs_Wf0piP_t0		free	75.4162	1.2101
53	A_amp_abs_Wf0piP_t1		free	71.9515	1.07213
54	A_amp_abs_Wf0piP_t2		free	74.1063	1.18427
55	A_amp_abs_Wf0piP_t3		free	74.7478	1.17928
56	A_amp_abs_Wf0piP_t4		free	77.6213	1.14691
57	A_amp_abs_Wf0piP_t5		free	74.1122	1.13124
58	A_amp_abs_Wf0piP_t6		free	70.2652	0.949065
59	A_amp_abs_Wf0piP_t7		free	74.4729	1.03811
60	A_amp_abs_Wf0piP_t8		free	72.7576	0.994272
61	A_amp_abs_Wf0piP_t9		free	51.6981	0.814933
62	A_amp_abs_Wf0piP_t10		free	19.3062	0.683241
63	A_amp_arg_Wf0piP_t0		free	-32.2221	0.912324
64	A_amp_arg_Wf0piP_t1		free	-31.4256	0.869041
65	A_amp_arg_Wf0piP_t2		free	-26.5318	0.940664
66	A_amp_arg_Wf0piP_t3		free	-27.8104	0.929647
67	A_amp_arg_Wf0piP_t4		free	-29.9046	0.919903
68	A_amp_arg_Wf0piP_t5		free	-28.6564	0.918468
69	A_amp_arg_Wf0piP_t6		free	-25.2339	0.923555
70	A_amp_arg_Wf0piP_t7		free	-26.2863	0.9604
71	A_amp_arg_Wf0piP_t8		free	-21.1237	0.988051
72	A_amp_arg_Wf0piP_t9		free	-16.1064	1.22327
73	A_amp_arg_Wf0piP_t10		free	-368.74	2.55051
74	c0f0piP				free	5.9228	0.110964
75	a_bgd_abs_Wf0piP_t0		free	376.671	7.86135
76	a_bgd_abs_Wf0piP_t1		free	375.56	6.3919
77	a_bgd_abs_Wf0piP_t2		free	356.23	7.79554
78	a_bgd_abs_Wf0piP_t3		free	367.974	7.78317
79	a_bgd_abs_Wf0piP_t4		free	367.502	7.98728
80	a_bgd_abs_Wf0piP_t5		free	360.477	7.22218
81	a_bgd_abs_Wf0piP_t6		free	334.161	6.54521
82	a_bgd_abs_Wf0piP_t7		free	359.438	7.44489
83	a_bgd_abs_Wf0piP_t8		free	348.612	7.64182
84	a_bgd_abs_Wf0piP_t9		free	274.192	7.10262
85	a_bgd_abs_Wf0piP_t10		free	-142.824	5.52265
86	a_bgd_arg_Wf0piP_t0		free	-171.922	1.2855
87	a_bgd_arg_Wf0piP_t1		free	-170.76	1.06273
88	a_bgd_arg_Wf0piP_t2		free	-163.138	1.35679
89	a_bgd_arg_Wf0piP_t3		free	-160.674	1.30426
90	a_bgd_arg_Wf0piP_t4		free	-158.211	1.25797
91	a_bgd_arg_Wf0piP_t5		free	-162.878	1.26794
92	a_bgd_arg_Wf0piP_t6		free	-155.553	1.07698
93	a_bgd_arg_Wf0piP_t7		free	-143.232	1.21997
94	a_bgd_arg_Wf0piP_t8		free	-126.581	1.24989
95	a_bgd_arg_Wf0piP_t9		free	-98.1214	1.47325
96	a_bgd_arg_Wf0piP_t10		free	-3662.95	2.52121
97	a2_1320_M			free	1.31312	8.83536e-05
98	a2_1320_G			free	0.0912442	0.000148624
99	A_amp_abs_WrhopiD_t0		free	256.989	0.813245
100	A_amp_abs_WrhopiD_t1		free	272.984	0.828301
101	A_amp_abs_WrhopiD_t2		free	290.712	0.841916
102	A_amp_abs_WrhopiD_t3		free	309.988	0.858687
103	A_amp_abs_WrhopiD_t4		free	334.438	0.88717
104	A_amp_abs_WrhopiD_t5		free	361.622	0.914161
105	A_amp_abs_WrhopiD_t6		free	394.932	0.956651
106	A_amp_abs_WrhopiD_t7		free	439.278	1.00956
107	A_amp_abs_WrhopiD_t8		free	492.571	1.06253
108	A_amp_abs_WrhopiD_t9		free	-480.443	1.08221
109	A_amp_abs_WrhopiD_t10		free	-250.753	0.884257
110	A_amp_arg_WrhopiD_t0		fixed	0	0
111	A_amp_arg_WrhopiD_t1		fixed	0	0
112	A_amp_arg_WrhopiD_t2		fixed	0	0
113	A_amp_arg_WrhopiD_t3		fixed	0	0
114	A_amp_arg_WrhopiD_t4		fixed	0	0
115	A_amp_arg_WrhopiD_t5		fixed	0	0
116	A_amp_arg_WrhopiD_t6		fixed	0	0
117	A_amp_arg_WrhopiD_t7		fixed	0	0
118	A_amp_arg_WrhopiD_t8		fixed	0	0
119	A_amp_arg_WrhopiD_t9		fixed	0	0
120	A_amp_arg_WrhopiD_t10		fixed	0	0
121	b0rhopiD			free	-1.01952	0.10292
122	c0rhopiD			free	2.92119	0.223325
123	c1rhopiD			free	1.29847	0.806893
124	c2rhopiD			free	-4.11781	1.18014
125	a_bgd_abs_WrhopiD_t0		free	222.888	6.01699
126	a_bgd_abs_WrhopiD_t1		free	230.584	6.10972
127	a_bgd_abs_WrhopiD_t2		free	223.151	5.80282
128	a_bgd_abs_WrhopiD_t3		free	229.031	5.85487
129	a_bgd_abs_WrhopiD_t4		free	238.461	5.99768
130	a_bgd_abs_WrhopiD_t5		free	239.397	5.97856
131	a_bgd_abs_WrhopiD_t6		free	241.955	6.0675
132	a_bgd_abs_WrhopiD_t7		free	257.23	6.58475
133	a_bgd_abs_WrhopiD_t8		free	263.1	7.26491
134	a_bgd_abs_WrhopiD_t9		free	-281.87	9.14007
135	a_bgd_abs_WrhopiD_t10		free	-137.98	8.54674
136	a_bgd_arg_WrhopiD_t0		free	2.00991	0.69055
137	a_bgd_arg_WrhopiD_t1		free	2.08582	0.696078
138	a_bgd_arg_WrhopiD_t2		free	-0.772596	0.761319
139	a_bgd_arg_WrhopiD_t3		free	-3.22604	0.775045
140	a_bgd_arg_WrhopiD_t4		free	-6.63815	0.786806
141	a_bgd_arg_WrhopiD_t5		free	-11.4283	0.825455
142	a_bgd_arg_WrhopiD_t6		free	-18.6934	0.881104
143	a_bgd_arg_WrhopiD_t7		free	-23.5271	0.868841
144	a_bgd_arg_WrhopiD_t8		free	-38.0476	0.850353
145	a_bgd_arg_WrhopiD_t9		free	-412.983	0.688701
146	a_bgd_arg_WrhopiD_t10		free	-3669.12	0.640681

