path_to_data /home/wagner/Documents/Fit/systematics/flo_88waves_rank2/
path_to_theory /localhome/wagner/Documents/Fit/data/datapoints/theory/
path_to_phase_space utils/phase_space/
path_to_output output/

file_waves utils/waves_bw.dat
file_tprimes utils/tprimes.dat
file_particles utils/particles.dat
file_theory utils/theory.dat

file_parameters utils/minima/new_result_bw.pars

data_type sym
phase_space_type sym
chi2_function chi2sym
maximal_chi2 1e+10
maximal_tries 1

minimizer_print_level 2
minimizer_tolerance 1e-30


// the following stuff is not needed (but also doesn't disturb)
// in case you want to use this as an optionfile for a new run.
option_file /home/wagner/Documents/Fit/mfitter/utils/syst_options/options_bw_flo_88waves_rank2.opt
Random seed 1571379454846488128
Chi2 24839.9
R2part 2335.97
EDM 1683.17
Number of parameters 147
Status 3

Starting parameters of the minimizer:
// Index	Name			Fixed	Value
0	a1_1260_M			free	1.32337
1	a1_1260_G			free	0.388028
2	A_amp_abs_WrhopiS_t0		free	930.554
3	A_amp_abs_WrhopiS_t1		free	1302.48
4	A_amp_abs_WrhopiS_t2		free	1257.18
5	A_amp_abs_WrhopiS_t3		free	1215.44
6	A_amp_abs_WrhopiS_t4		free	1175.07
7	A_amp_abs_WrhopiS_t5		free	1126.4
8	A_amp_abs_WrhopiS_t6		free	1077.56
9	A_amp_abs_WrhopiS_t7		free	1018.24
10	A_amp_abs_WrhopiS_t8		free	936.326
11	A_amp_abs_WrhopiS_t9		free	807.69
12	A_amp_abs_WrhopiS_t10		free	486.674
13	A_amp_arg_WrhopiS_t0		free	44.5942
14	A_amp_arg_WrhopiS_t1		free	29.9441
15	A_amp_arg_WrhopiS_t2		free	26.5469
16	A_amp_arg_WrhopiS_t3		free	23.8653
17	A_amp_arg_WrhopiS_t4		free	22.386
18	A_amp_arg_WrhopiS_t5		free	27.1426
19	A_amp_arg_WrhopiS_t6		free	28.4047
20	A_amp_arg_WrhopiS_t7		free	27.5099
21	A_amp_arg_WrhopiS_t8		free	21.4681
22	A_amp_arg_WrhopiS_t9		free	16.7016
23	A_amp_arg_WrhopiS_t10		free	16.9053
24	b0rhopiS			free	0.309467
25	c0rhopiS			free	4.00808
26	c1rhopiS			free	-9.65219
27	c2rhopiS			free	10.8321
28	a_bgd_abs_WrhopiS_t0		free	2762.82
29	a_bgd_abs_WrhopiS_t1		free	1721.56
30	a_bgd_abs_WrhopiS_t2		free	1601.53
31	a_bgd_abs_WrhopiS_t3		free	1474.1
32	a_bgd_abs_WrhopiS_t4		free	1346.96
33	a_bgd_abs_WrhopiS_t5		free	1232
34	a_bgd_abs_WrhopiS_t6		free	1092.69
35	a_bgd_abs_WrhopiS_t7		free	950.605
36	a_bgd_abs_WrhopiS_t8		free	748.526
37	a_bgd_abs_WrhopiS_t9		free	565.621
38	a_bgd_abs_WrhopiS_t10		free	353.826
39	a_bgd_arg_WrhopiS_t0		free	19.1125
40	a_bgd_arg_WrhopiS_t1		free	4.81983
41	a_bgd_arg_WrhopiS_t2		free	3.35096
42	a_bgd_arg_WrhopiS_t3		free	2.95842
43	a_bgd_arg_WrhopiS_t4		free	3.39748
44	a_bgd_arg_WrhopiS_t5		free	10.7623
45	a_bgd_arg_WrhopiS_t6		free	14.895
46	a_bgd_arg_WrhopiS_t7		free	17.3616
47	a_bgd_arg_WrhopiS_t8		free	19.0235
48	a_bgd_arg_WrhopiS_t9		free	23.1959
49	a_bgd_arg_WrhopiS_t10		free	43.5662
50	a1_1420_M			free	1.4194
51	a1_1420_G			free	0.160363
52	A_amp_abs_Wf0piP_t0		free	84.1269
53	A_amp_abs_Wf0piP_t1		free	75.0066
54	A_amp_abs_Wf0piP_t2		free	67.1631
55	A_amp_abs_Wf0piP_t3		free	73.621
56	A_amp_abs_Wf0piP_t4		free	71.1508
57	A_amp_abs_Wf0piP_t5		free	73.3782
58	A_amp_abs_Wf0piP_t6		free	67.0189
59	A_amp_abs_Wf0piP_t7		free	60.3569
60	A_amp_abs_Wf0piP_t8		free	62.7157
61	A_amp_abs_Wf0piP_t9		free	62.9602
62	A_amp_abs_Wf0piP_t10		free	48.8613
63	A_amp_arg_Wf0piP_t0		free	-27.591
64	A_amp_arg_Wf0piP_t1		free	-36.3896
65	A_amp_arg_Wf0piP_t2		free	-36.9277
66	A_amp_arg_Wf0piP_t3		free	-36.5144
67	A_amp_arg_Wf0piP_t4		free	-36.5604
68	A_amp_arg_Wf0piP_t5		free	-28.8369
69	A_amp_arg_Wf0piP_t6		free	-23.8651
70	A_amp_arg_Wf0piP_t7		free	-24.1033
71	A_amp_arg_Wf0piP_t8		free	-25.8422
72	A_amp_arg_Wf0piP_t9		free	-30.742
73	A_amp_arg_Wf0piP_t10		free	-27.66
74	c0f0piP				free	12.5933
75	a_bgd_abs_Wf0piP_t0		free	446.122
76	a_bgd_abs_Wf0piP_t1		free	217.166
77	a_bgd_abs_Wf0piP_t2		free	194.917
78	a_bgd_abs_Wf0piP_t3		free	193.65
79	a_bgd_abs_Wf0piP_t4		free	207.298
80	a_bgd_abs_Wf0piP_t5		free	175.597
81	a_bgd_abs_Wf0piP_t6		free	144.639
82	a_bgd_abs_Wf0piP_t7		free	112.987
83	a_bgd_abs_Wf0piP_t8		free	143.34
84	a_bgd_abs_Wf0piP_t9		free	157.567
85	a_bgd_abs_Wf0piP_t10		free	162.993
86	a_bgd_arg_Wf0piP_t0		free	-161.962
87	a_bgd_arg_Wf0piP_t1		free	-170.122
88	a_bgd_arg_Wf0piP_t2		free	-177.394
89	a_bgd_arg_Wf0piP_t3		free	-155.7
90	a_bgd_arg_Wf0piP_t4		free	-152.438
91	a_bgd_arg_Wf0piP_t5		free	-140.305
92	a_bgd_arg_Wf0piP_t6		free	-141.532
93	a_bgd_arg_Wf0piP_t7		free	-140.187
94	a_bgd_arg_Wf0piP_t8		free	-121.263
95	a_bgd_arg_Wf0piP_t9		free	-110.539
96	a_bgd_arg_Wf0piP_t10		free	-71.5811
97	a2_1320_M			free	1.31825
98	a2_1320_G			free	0.116032
99	A_amp_abs_WrhopiD_t0		free	304.316
100	A_amp_abs_WrhopiD_t1		free	286.265
101	A_amp_abs_WrhopiD_t2		free	294.985
102	A_amp_abs_WrhopiD_t3		free	293.46
103	A_amp_abs_WrhopiD_t4		free	270.82
104	A_amp_abs_WrhopiD_t5		free	274.19
105	A_amp_abs_WrhopiD_t6		free	308.123
106	A_amp_abs_WrhopiD_t7		free	350.895
107	A_amp_abs_WrhopiD_t8		free	396.143
108	A_amp_abs_WrhopiD_t9		free	453.119
109	A_amp_abs_WrhopiD_t10		free	427.475
110	A_amp_arg_WrhopiD_t0		fixed	0
111	A_amp_arg_WrhopiD_t1		fixed	0
112	A_amp_arg_WrhopiD_t2		fixed	0
113	A_amp_arg_WrhopiD_t3		fixed	0
114	A_amp_arg_WrhopiD_t4		fixed	0
115	A_amp_arg_WrhopiD_t5		fixed	0
116	A_amp_arg_WrhopiD_t6		fixed	0
117	A_amp_arg_WrhopiD_t7		fixed	0
118	A_amp_arg_WrhopiD_t8		fixed	0
119	A_amp_arg_WrhopiD_t9		fixed	0
120	A_amp_arg_WrhopiD_t10		fixed	0
121	b0rhopiD			free	5.88981e-10
122	c0rhopiD			free	2.48048
123	c1rhopiD			free	3.66028
124	c2rhopiD			free	-3.2364
125	a_bgd_abs_WrhopiD_t0		free	591.329
126	a_bgd_abs_WrhopiD_t1		free	4.61429
127	a_bgd_abs_WrhopiD_t2		free	10.9869
128	a_bgd_abs_WrhopiD_t3		free	25.6936
129	a_bgd_abs_WrhopiD_t4		free	62.41
130	a_bgd_abs_WrhopiD_t5		free	157.801
131	a_bgd_abs_WrhopiD_t6		free	373.393
132	a_bgd_abs_WrhopiD_t7		free	839.528
133	a_bgd_abs_WrhopiD_t8		free	2558.94
134	a_bgd_abs_WrhopiD_t9		free	16269.6
135	a_bgd_abs_WrhopiD_t10		free	1.04692e+06
136	a_bgd_arg_WrhopiD_t0		free	-2.66533
137	a_bgd_arg_WrhopiD_t1		free	-8.64994
138	a_bgd_arg_WrhopiD_t2		free	-3.28696
139	a_bgd_arg_WrhopiD_t3		free	7.23494
140	a_bgd_arg_WrhopiD_t4		free	29.9132
141	a_bgd_arg_WrhopiD_t5		free	48.9288
142	a_bgd_arg_WrhopiD_t6		free	58.085
143	a_bgd_arg_WrhopiD_t7		free	51.806
144	a_bgd_arg_WrhopiD_t8		free	34.3271
145	a_bgd_arg_WrhopiD_t9		free	-5.53789
146	a_bgd_arg_WrhopiD_t10		free	-22.2697

Final parameters of the minimizer:
// Index	Name			Fixed	Value	Error
0	a1_1260_M			free	1.32087	5.52527e+06
1	a1_1260_G			free	0.350899	5.52527e+06
2	A_amp_abs_WrhopiS_t0		free	915.491	5.52527e+06
3	A_amp_abs_WrhopiS_t1		free	885.95	5.52527e+06
4	A_amp_abs_WrhopiS_t2		free	854.922	5.52527e+06
5	A_amp_abs_WrhopiS_t3		free	829.324	5.52527e+06
6	A_amp_abs_WrhopiS_t4		free	796.349	5.52527e+06
7	A_amp_abs_WrhopiS_t5		free	759.17	5.52527e+06
8	A_amp_abs_WrhopiS_t6		free	719.163	5.52527e+06
9	A_amp_abs_WrhopiS_t7		free	663.968	5.52527e+06
10	A_amp_abs_WrhopiS_t8		free	586.777	5.52527e+06
11	A_amp_abs_WrhopiS_t9		free	378.769	5.52527e+06
12	A_amp_abs_WrhopiS_t10		free	111.672	5.52527e+06
13	A_amp_arg_WrhopiS_t0		free	48.0863	5.52527e+06
14	A_amp_arg_WrhopiS_t1		free	47.3454	5.52527e+06
15	A_amp_arg_WrhopiS_t2		free	47.0243	5.52527e+06
16	A_amp_arg_WrhopiS_t3		free	44.7505	5.52527e+06
17	A_amp_arg_WrhopiS_t4		free	44.2817	5.52527e+06
18	A_amp_arg_WrhopiS_t5		free	41.755	5.52527e+06
19	A_amp_arg_WrhopiS_t6		free	40.7579	5.52527e+06
20	A_amp_arg_WrhopiS_t7		free	32.326	5.52527e+06
21	A_amp_arg_WrhopiS_t8		free	25.0115	5.52527e+06
22	A_amp_arg_WrhopiS_t9		free	29.5529	5.52527e+06
23	A_amp_arg_WrhopiS_t10		free	383.977	5.52527e+06
24	b0rhopiS			free	1.0135	5.52527e+06
25	c0rhopiS			free	4.85735	5.52527e+06
26	c1rhopiS			free	-8.72821	5.52527e+06
27	c2rhopiS			free	7.67328	5.52527e+06
28	a_bgd_abs_WrhopiS_t0		free	2092.83	5.52527e+06
29	a_bgd_abs_WrhopiS_t1		free	1973.27	5.52527e+06
30	a_bgd_abs_WrhopiS_t2		free	1836.63	5.52527e+06
31	a_bgd_abs_WrhopiS_t3		free	1702.21	5.52527e+06
32	a_bgd_abs_WrhopiS_t4		free	1582.91	5.52527e+06
33	a_bgd_abs_WrhopiS_t5		free	1410.37	5.52527e+06
34	a_bgd_abs_WrhopiS_t6		free	1232.67	5.52527e+06
35	a_bgd_abs_WrhopiS_t7		free	971.062	5.52527e+06
36	a_bgd_abs_WrhopiS_t8		free	733.202	5.52527e+06
37	a_bgd_abs_WrhopiS_t9		free	435.186	5.52527e+06
38	a_bgd_abs_WrhopiS_t10		free	135.493	5.52527e+06
39	a_bgd_arg_WrhopiS_t0		free	20.4033	5.52527e+06
40	a_bgd_arg_WrhopiS_t1		free	21.5083	5.52527e+06
41	a_bgd_arg_WrhopiS_t2		free	24.0198	5.52527e+06
42	a_bgd_arg_WrhopiS_t3		free	23.7499	5.52527e+06
43	a_bgd_arg_WrhopiS_t4		free	25.8769	5.52527e+06
44	a_bgd_arg_WrhopiS_t5		free	27.7079	5.52527e+06
45	a_bgd_arg_WrhopiS_t6		free	31.4388	5.52527e+06
46	a_bgd_arg_WrhopiS_t7		free	33.7492	5.52527e+06
47	a_bgd_arg_WrhopiS_t8		free	35.7411	5.52527e+06
48	a_bgd_arg_WrhopiS_t9		free	53.7438	5.52527e+06
49	a_bgd_arg_WrhopiS_t10		free	-637.225	5.52527e+06
50	a1_1420_M			free	1.41289	5.52527e+06
51	a1_1420_G			free	0.150699	5.52527e+06
52	A_amp_abs_Wf0piP_t0		free	83.5196	5.52527e+06
53	A_amp_abs_Wf0piP_t1		free	74.7951	5.52527e+06
54	A_amp_abs_Wf0piP_t2		free	81.9435	5.52527e+06
55	A_amp_abs_Wf0piP_t3		free	80.6954	5.52527e+06
56	A_amp_abs_Wf0piP_t4		free	82.1846	5.52527e+06
57	A_amp_abs_Wf0piP_t5		free	78.347	5.52527e+06
58	A_amp_abs_Wf0piP_t6		free	71.2751	5.52527e+06
59	A_amp_abs_Wf0piP_t7		free	74.96	5.52527e+06
60	A_amp_abs_Wf0piP_t8		free	74.9554	5.52527e+06
61	A_amp_abs_Wf0piP_t9		free	53.7149	5.52527e+06
62	A_amp_abs_Wf0piP_t10		free	20.8073	5.52527e+06
63	A_amp_arg_Wf0piP_t0		free	-33.3039	5.52527e+06
64	A_amp_arg_Wf0piP_t1		free	-32.2418	5.52527e+06
65	A_amp_arg_Wf0piP_t2		free	-28.9498	5.52527e+06
66	A_amp_arg_Wf0piP_t3		free	-30.0747	5.52527e+06
67	A_amp_arg_Wf0piP_t4		free	-27.9204	5.52527e+06
68	A_amp_arg_Wf0piP_t5		free	-25.5147	5.52527e+06
69	A_amp_arg_Wf0piP_t6		free	-24.078	5.52527e+06
70	A_amp_arg_Wf0piP_t7		free	-24.4436	5.52527e+06
71	A_amp_arg_Wf0piP_t8		free	-28.3076	5.52527e+06
72	A_amp_arg_Wf0piP_t9		free	-18.232	5.52527e+06
73	A_amp_arg_Wf0piP_t10		free	-15.8987	5.52527e+06
74	c0f0piP				free	7.86629	5.52527e+06
75	a_bgd_abs_Wf0piP_t0		free	243.629	5.52527e+06
76	a_bgd_abs_Wf0piP_t1		free	229.4	5.52527e+06
77	a_bgd_abs_Wf0piP_t2		free	241.83	5.52527e+06
78	a_bgd_abs_Wf0piP_t3		free	266.935	5.52527e+06
79	a_bgd_abs_Wf0piP_t4		free	225.339	5.52527e+06
80	a_bgd_abs_Wf0piP_t5		free	215.578	5.52527e+06
81	a_bgd_abs_Wf0piP_t6		free	172.571	5.52527e+06
82	a_bgd_abs_Wf0piP_t7		free	222.742	5.52527e+06
83	a_bgd_abs_Wf0piP_t8		free	237.278	5.52527e+06
84	a_bgd_abs_Wf0piP_t9		free	235.302	5.52527e+06
85	a_bgd_abs_Wf0piP_t10		free	-140.289	5.52527e+06
86	a_bgd_arg_Wf0piP_t0		free	-163.548	5.52527e+06
87	a_bgd_arg_Wf0piP_t1		free	-173.718	5.52527e+06
88	a_bgd_arg_Wf0piP_t2		free	-151.02	5.52527e+06
89	a_bgd_arg_Wf0piP_t3		free	-150.402	5.52527e+06
90	a_bgd_arg_Wf0piP_t4		free	-145.848	5.52527e+06
91	a_bgd_arg_Wf0piP_t5		free	-147.995	5.52527e+06
92	a_bgd_arg_Wf0piP_t6		free	-142.981	5.52527e+06
93	a_bgd_arg_Wf0piP_t7		free	-124.256	5.52527e+06
94	a_bgd_arg_Wf0piP_t8		free	-108.176	5.52527e+06
95	a_bgd_arg_Wf0piP_t9		free	-60.8123	5.52527e+06
96	a_bgd_arg_Wf0piP_t10		free	-43.9558	5.52527e+06
97	a2_1320_M			free	1.31125	5.52527e+06
98	a2_1320_G			free	0.0884564	5.52527e+06
99	A_amp_abs_WrhopiD_t0		free	221.221	5.52527e+06
100	A_amp_abs_WrhopiD_t1		free	245.973	5.52527e+06
101	A_amp_abs_WrhopiD_t2		free	274.203	5.52527e+06
102	A_amp_abs_WrhopiD_t3		free	292.372	5.52527e+06
103	A_amp_abs_WrhopiD_t4		free	318.419	5.52527e+06
104	A_amp_abs_WrhopiD_t5		free	349.281	5.52527e+06
105	A_amp_abs_WrhopiD_t6		free	376.577	5.52527e+06
106	A_amp_abs_WrhopiD_t7		free	421.17	5.52527e+06
107	A_amp_abs_WrhopiD_t8		free	451.138	5.52527e+06
108	A_amp_abs_WrhopiD_t9		free	393.724	5.52527e+06
109	A_amp_abs_WrhopiD_t10		free	210.261	5.52527e+06
110	A_amp_arg_WrhopiD_t0		fixed	0	0
111	A_amp_arg_WrhopiD_t1		fixed	0	0
112	A_amp_arg_WrhopiD_t2		fixed	0	0
113	A_amp_arg_WrhopiD_t3		fixed	0	0
114	A_amp_arg_WrhopiD_t4		fixed	0	0
115	A_amp_arg_WrhopiD_t5		fixed	0	0
116	A_amp_arg_WrhopiD_t6		fixed	0	0
117	A_amp_arg_WrhopiD_t7		fixed	0	0
118	A_amp_arg_WrhopiD_t8		fixed	0	0
119	A_amp_arg_WrhopiD_t9		fixed	0	0
120	A_amp_arg_WrhopiD_t10		fixed	0	0
121	b0rhopiD			free	-7.23192	5.52527e+06
122	c0rhopiD			free	44.3412	5.52527e+06
123	c1rhopiD			free	-325.647	5.52527e+06
124	c2rhopiD			free	763.172	5.52527e+06
125	a_bgd_abs_WrhopiD_t0		free	124.866	5.52527e+06
126	a_bgd_abs_WrhopiD_t1		free	91.1796	5.52527e+06
127	a_bgd_abs_WrhopiD_t2		free	58.2678	5.52527e+06
128	a_bgd_abs_WrhopiD_t3		free	37.5432	5.52527e+06
129	a_bgd_abs_WrhopiD_t4		free	25.1597	5.52527e+06
130	a_bgd_abs_WrhopiD_t5		free	17.9045	5.52527e+06
131	a_bgd_abs_WrhopiD_t6		free	15.4891	5.52527e+06
132	a_bgd_abs_WrhopiD_t7		free	27.1909	5.52527e+06
133	a_bgd_abs_WrhopiD_t8		free	148.016	5.52527e+06
134	a_bgd_abs_WrhopiD_t9		free	-1691.28	5.52527e+06
135	a_bgd_abs_WrhopiD_t10		free	-2.99404e+06	7.24458
136	a_bgd_arg_WrhopiD_t0		free	27.8525	5.52527e+06
137	a_bgd_arg_WrhopiD_t1		free	19.7713	5.52527e+06
138	a_bgd_arg_WrhopiD_t2		free	13.6075	5.52527e+06
139	a_bgd_arg_WrhopiD_t3		free	12.0122	5.52527e+06
140	a_bgd_arg_WrhopiD_t4		free	7.51288	5.52527e+06
141	a_bgd_arg_WrhopiD_t5		free	-3.53464	5.52527e+06
142	a_bgd_arg_WrhopiD_t6		free	-10.4944	5.52527e+06
143	a_bgd_arg_WrhopiD_t7		free	-12.3526	5.52527e+06
144	a_bgd_arg_WrhopiD_t8		free	-6.85068	5.52527e+06
145	a_bgd_arg_WrhopiD_t9		free	28.6578	5.52527e+06
146	a_bgd_arg_WrhopiD_t10		free	650.641	5.52527e+06

