path_to_data /localhome/wagner/Documents/Fit/data/datapoints/
path_to_theory /localhome/wagner/Documents/Fit/data/datapoints/theory/
path_to_phase_space utils/phase_space/
path_to_output output/

file_waves utils/waves.dat
file_tprimes utils/tprimes.dat
file_particles utils/particles.dat
file_theory utils/theory_spin.dat

file_parameters utils/minima/new_result_spin.pars

data_type sym
phase_space_type sym
chi2_function chi2sym
maximal_chi2 1e+10
maximal_tries 1

minimizer_print_level 2
minimizer_tolerance 1e-30


// the following stuff is not needed (but also doesn't disturb)
// in case you want to use this as an optionfile for a new run.
option_file utils/options_spin.opt
Random seed 1571440843510179052
Chi2 19960.9
R2part 2422.1
EDM 4.98657e-08
Number of parameters 145
Status 3

Starting parameters of the minimizer:
// Index	Name			Fixed	Value
0	a1_1260_M			free	1.3073
1	a1_1260_G			free	0.361144
2	A_amp_abs_WrhopiS_t0		free	973.297
3	A_amp_abs_WrhopiS_t1		free	950.007
4	A_amp_abs_WrhopiS_t2		free	912.58
5	A_amp_abs_WrhopiS_t3		free	881.965
6	A_amp_abs_WrhopiS_t4		free	845.655
7	A_amp_abs_WrhopiS_t5		free	813.381
8	A_amp_abs_WrhopiS_t6		free	772.272
9	A_amp_abs_WrhopiS_t7		free	717.875
10	A_amp_abs_WrhopiS_t8		free	644.394
11	A_amp_abs_WrhopiS_t9		free	446.014
12	A_amp_abs_WrhopiS_t10		free	133.07
13	A_amp_arg_WrhopiS_t0		free	42.4282
14	A_amp_arg_WrhopiS_t1		free	40.6996
15	A_amp_arg_WrhopiS_t2		free	39.1014
16	A_amp_arg_WrhopiS_t3		free	36.2181
17	A_amp_arg_WrhopiS_t4		free	32.6711
18	A_amp_arg_WrhopiS_t5		free	29.9336
19	A_amp_arg_WrhopiS_t6		free	26.4428
20	A_amp_arg_WrhopiS_t7		free	21.5386
21	A_amp_arg_WrhopiS_t8		free	15.8169
22	A_amp_arg_WrhopiS_t9		free	9.02122
23	A_amp_arg_WrhopiS_t10		free	0.341931
24	b0rhopiS			free	0.685189
25	c0rhopiS			free	4.23905
26	c1rhopiS			free	-9.4708
27	c2rhopiS			free	11.088
28	a_bgd_abs_WrhopiS_t0		free	2214.67
29	a_bgd_abs_WrhopiS_t1		free	2078.63
30	a_bgd_abs_WrhopiS_t2		free	1917.83
31	a_bgd_abs_WrhopiS_t3		free	1757.27
32	a_bgd_abs_WrhopiS_t4		free	1587.34
33	a_bgd_abs_WrhopiS_t5		free	1406.79
34	a_bgd_abs_WrhopiS_t6		free	1207.28
35	a_bgd_abs_WrhopiS_t7		free	982.365
36	a_bgd_abs_WrhopiS_t8		free	709.59
37	a_bgd_abs_WrhopiS_t9		free	351.39
38	a_bgd_abs_WrhopiS_t10		free	165.177
39	a_bgd_arg_WrhopiS_t0		free	20.4406
40	a_bgd_arg_WrhopiS_t1		free	20.7081
41	a_bgd_arg_WrhopiS_t2		free	21.8605
42	a_bgd_arg_WrhopiS_t3		free	21.9481
43	a_bgd_arg_WrhopiS_t4		free	22.3133
44	a_bgd_arg_WrhopiS_t5		free	23.8037
45	a_bgd_arg_WrhopiS_t6		free	25.7815
46	a_bgd_arg_WrhopiS_t7		free	29.0522
47	a_bgd_arg_WrhopiS_t8		free	35.8076
48	a_bgd_arg_WrhopiS_t9		free	56.7799
49	a_bgd_arg_WrhopiS_t10		free	104.258
50	A_amp_abs_Wf0piP_t0		free	1158.13
51	A_amp_abs_Wf0piP_t1		free	1115.32
52	A_amp_abs_Wf0piP_t2		free	1127.04
53	A_amp_abs_Wf0piP_t3		free	1153.32
54	A_amp_abs_Wf0piP_t4		free	1162.84
55	A_amp_abs_Wf0piP_t5		free	1115.58
56	A_amp_abs_Wf0piP_t6		free	1057.46
57	A_amp_abs_Wf0piP_t7		free	1085.67
58	A_amp_abs_Wf0piP_t8		free	1025.32
59	A_amp_abs_Wf0piP_t9		free	702.269
60	A_amp_abs_Wf0piP_t10		free	204.011
61	A_amp_arg_Wf0piP_t0		free	61.9872
62	A_amp_arg_Wf0piP_t1		free	63.3902
63	A_amp_arg_Wf0piP_t2		free	67.7694
64	A_amp_arg_Wf0piP_t3		free	66.3765
65	A_amp_arg_Wf0piP_t4		free	64.8643
66	A_amp_arg_Wf0piP_t5		free	66.6268
67	A_amp_arg_Wf0piP_t6		free	70.1398
68	A_amp_arg_Wf0piP_t7		free	67.947
69	A_amp_arg_Wf0piP_t8		free	72.6482
70	A_amp_arg_Wf0piP_t9		free	78.166
71	A_amp_arg_Wf0piP_t10		free	88.5566
72	c0f0piP				free	10.4236
73	a_bgd_abs_Wf0piP_t0		free	441.149
74	a_bgd_abs_Wf0piP_t1		free	471.561
75	a_bgd_abs_Wf0piP_t2		free	405.014
76	a_bgd_abs_Wf0piP_t3		free	-437.091
77	a_bgd_abs_Wf0piP_t4		free	430.782
78	a_bgd_abs_Wf0piP_t5		free	402.084
79	a_bgd_abs_Wf0piP_t6		free	336.178
80	a_bgd_abs_Wf0piP_t7		free	370.082
81	a_bgd_abs_Wf0piP_t8		free	323.41
82	a_bgd_abs_Wf0piP_t9		free	251.375
83	a_bgd_abs_Wf0piP_t10		free	151.477
84	a_bgd_arg_Wf0piP_t0		free	184.802
85	a_bgd_arg_Wf0piP_t1		free	186.592
86	a_bgd_arg_Wf0piP_t2		free	196.815
87	a_bgd_arg_Wf0piP_t3		free	201.627
88	a_bgd_arg_Wf0piP_t4		free	201.527
89	a_bgd_arg_Wf0piP_t5		free	196.31
90	a_bgd_arg_Wf0piP_t6		free	-153.629
91	a_bgd_arg_Wf0piP_t7		free	-142.387
92	a_bgd_arg_Wf0piP_t8		free	-119.928
93	a_bgd_arg_Wf0piP_t9		free	-75.4298
94	a_bgd_arg_Wf0piP_t10		free	-35.7347
95	a2_1320_M			free	1.31409
96	a2_1320_G			free	0.0921953
97	A_amp_abs_WrhopiD_t0		free	263.154
98	A_amp_abs_WrhopiD_t1		free	277.716
99	A_amp_abs_WrhopiD_t2		free	295.74
100	A_amp_abs_WrhopiD_t3		free	313.839
101	A_amp_abs_WrhopiD_t4		free	337.018
102	A_amp_abs_WrhopiD_t5		free	363.709
103	A_amp_abs_WrhopiD_t6		free	396.259
104	A_amp_abs_WrhopiD_t7		free	438.33
105	A_amp_abs_WrhopiD_t8		free	491.896
106	A_amp_abs_WrhopiD_t9		free	481.77
107	A_amp_abs_WrhopiD_t10		free	244.353
108	A_amp_arg_WrhopiD_t0		fixed	0
109	A_amp_arg_WrhopiD_t1		fixed	0
110	A_amp_arg_WrhopiD_t2		fixed	0
111	A_amp_arg_WrhopiD_t3		fixed	0
112	A_amp_arg_WrhopiD_t4		fixed	0
113	A_amp_arg_WrhopiD_t5		fixed	0
114	A_amp_arg_WrhopiD_t6		fixed	0
115	A_amp_arg_WrhopiD_t7		fixed	0
116	A_amp_arg_WrhopiD_t8		fixed	0
117	A_amp_arg_WrhopiD_t9		fixed	0
118	A_amp_arg_WrhopiD_t10		fixed	0
119	b0rhopiD			free	-2.53558
120	c0rhopiD			free	5.71958
121	c1rhopiD			free	1.0208
122	c2rhopiD			free	-1.88492
123	a_bgd_abs_WrhopiD_t0		free	168.055
124	a_bgd_abs_WrhopiD_t1		free	171.502
125	a_bgd_abs_WrhopiD_t2		free	171.616
126	a_bgd_abs_WrhopiD_t3		free	173.087
127	a_bgd_abs_WrhopiD_t4		free	175.47
128	a_bgd_abs_WrhopiD_t5		free	177.99
129	a_bgd_abs_WrhopiD_t6		free	178.625
130	a_bgd_abs_WrhopiD_t7		free	188.818
131	a_bgd_abs_WrhopiD_t8		free	184.819
132	a_bgd_abs_WrhopiD_t9		free	193.349
133	a_bgd_abs_WrhopiD_t10		free	72.253
134	a_bgd_arg_WrhopiD_t0		free	3.2584
135	a_bgd_arg_WrhopiD_t1		free	3.12797
136	a_bgd_arg_WrhopiD_t2		free	1.30775
137	a_bgd_arg_WrhopiD_t3		free	1.26512
138	a_bgd_arg_WrhopiD_t4		free	-1.72212
139	a_bgd_arg_WrhopiD_t5		free	-5.37206
140	a_bgd_arg_WrhopiD_t6		free	-11.0358
141	a_bgd_arg_WrhopiD_t7		free	-13.1977
142	a_bgd_arg_WrhopiD_t8		free	-25.8525
143	a_bgd_arg_WrhopiD_t9		free	-43.7066
144	a_bgd_arg_WrhopiD_t10		free	-45.1993

Final parameters of the minimizer:
// Index	Name			Fixed	Value	Error
0	a1_1260_M			free	1.3073	0.000636136
1	a1_1260_G			free	0.361144	0.00128533
2	A_amp_abs_WrhopiS_t0		free	973.296	7.49005
3	A_amp_abs_WrhopiS_t1		free	950.007	7.36779
4	A_amp_abs_WrhopiS_t2		free	912.579	7.01722
5	A_amp_abs_WrhopiS_t3		free	881.964	6.62036
6	A_amp_abs_WrhopiS_t4		free	845.654	6.17436
7	A_amp_abs_WrhopiS_t5		free	813.38	5.74435
8	A_amp_abs_WrhopiS_t6		free	772.271	5.30977
9	A_amp_abs_WrhopiS_t7		free	717.875	4.89246
10	A_amp_abs_WrhopiS_t8		free	644.394	4.66364
11	A_amp_abs_WrhopiS_t9		free	446.014	5.27713
12	A_amp_abs_WrhopiS_t10		free	133.07	5.85321
13	A_amp_arg_WrhopiS_t0		free	42.4282	0.446315
14	A_amp_arg_WrhopiS_t1		free	40.6997	0.44496
15	A_amp_arg_WrhopiS_t2		free	39.1015	0.445977
16	A_amp_arg_WrhopiS_t3		free	36.2182	0.442776
17	A_amp_arg_WrhopiS_t4		free	32.6712	0.442115
18	A_amp_arg_WrhopiS_t5		free	29.9337	0.436656
19	A_amp_arg_WrhopiS_t6		free	26.4428	0.432486
20	A_amp_arg_WrhopiS_t7		free	21.5386	0.431001
21	A_amp_arg_WrhopiS_t8		free	15.8169	0.434952
22	A_amp_arg_WrhopiS_t9		free	9.02126	0.476952
23	A_amp_arg_WrhopiS_t10		free	0.342035	1.12823
24	b0rhopiS			free	0.685189	0.0125833
25	c0rhopiS			free	4.23905	0.0248494
26	c1rhopiS			free	-9.47081	0.16372
27	c2rhopiS			free	11.088	0.353291
28	a_bgd_abs_WrhopiS_t0		free	2214.67	11.5467
29	a_bgd_abs_WrhopiS_t1		free	2078.63	11.0248
30	a_bgd_abs_WrhopiS_t2		free	1917.83	10.4819
31	a_bgd_abs_WrhopiS_t3		free	1757.27	10.0336
32	a_bgd_abs_WrhopiS_t4		free	1587.34	9.56689
33	a_bgd_abs_WrhopiS_t5		free	1406.79	9.11751
34	a_bgd_abs_WrhopiS_t6		free	1207.28	8.65577
35	a_bgd_abs_WrhopiS_t7		free	982.365	8.26957
36	a_bgd_abs_WrhopiS_t8		free	709.59	8.16126
37	a_bgd_abs_WrhopiS_t9		free	351.391	9.5062
38	a_bgd_abs_WrhopiS_t10		free	165.176	9.90775
39	a_bgd_arg_WrhopiS_t0		free	20.4406	0.36876
40	a_bgd_arg_WrhopiS_t1		free	20.7081	0.36278
41	a_bgd_arg_WrhopiS_t2		free	21.8606	0.355103
42	a_bgd_arg_WrhopiS_t3		free	21.9482	0.348189
43	a_bgd_arg_WrhopiS_t4		free	22.3133	0.342973
44	a_bgd_arg_WrhopiS_t5		free	23.8038	0.340228
45	a_bgd_arg_WrhopiS_t6		free	25.7815	0.341761
46	a_bgd_arg_WrhopiS_t7		free	29.0522	0.351099
47	a_bgd_arg_WrhopiS_t8		free	35.8076	0.393528
48	a_bgd_arg_WrhopiS_t9		free	56.7799	0.59997
49	a_bgd_arg_WrhopiS_t10		free	104.258	1.89978
50	A_amp_abs_Wf0piP_t0		free	1158.13	13.5495
51	A_amp_abs_Wf0piP_t1		free	1115.32	13.4023
52	A_amp_abs_Wf0piP_t2		free	1127.03	12.3985
53	A_amp_abs_Wf0piP_t3		free	1153.31	12.4056
54	A_amp_abs_Wf0piP_t4		free	1162.83	11.9846
55	A_amp_abs_Wf0piP_t5		free	1115.57	11.8037
56	A_amp_abs_Wf0piP_t6		free	1057.46	11.5623
57	A_amp_abs_Wf0piP_t7		free	1085.67	10.8424
58	A_amp_abs_Wf0piP_t8		free	1025.32	10.6619
59	A_amp_abs_Wf0piP_t9		free	702.269	10.8777
60	A_amp_abs_Wf0piP_t10		free	204.012	8.51364
61	A_amp_arg_Wf0piP_t0		free	61.9872	0.758763
62	A_amp_arg_Wf0piP_t1		free	63.3902	0.774745
63	A_amp_arg_Wf0piP_t2		free	67.7694	0.741002
64	A_amp_arg_Wf0piP_t3		free	66.3765	0.742419
65	A_amp_arg_Wf0piP_t4		free	64.8642	0.703186
66	A_amp_arg_Wf0piP_t5		free	66.6267	0.717334
67	A_amp_arg_Wf0piP_t6		free	70.1398	0.745361
68	A_amp_arg_Wf0piP_t7		free	67.947	0.730958
69	A_amp_arg_Wf0piP_t8		free	72.6482	0.769896
70	A_amp_arg_Wf0piP_t9		free	78.166	1.09223
71	A_amp_arg_Wf0piP_t10		free	88.5566	2.86919
72	c0f0piP				free	10.4236	0.222535
73	a_bgd_abs_Wf0piP_t0		free	441.147	15.1852
74	a_bgd_abs_Wf0piP_t1		free	471.559	15.2488
75	a_bgd_abs_Wf0piP_t2		free	405.012	14.1661
76	a_bgd_abs_Wf0piP_t3		free	-437.089	14.6542
77	a_bgd_abs_Wf0piP_t4		free	430.78	14.5795
78	a_bgd_abs_Wf0piP_t5		free	402.083	13.4136
79	a_bgd_abs_Wf0piP_t6		free	336.176	12.2355
80	a_bgd_abs_Wf0piP_t7		free	370.081	12.7102
81	a_bgd_abs_Wf0piP_t8		free	323.409	12.2043
82	a_bgd_abs_Wf0piP_t9		free	251.374	11.3877
83	a_bgd_abs_Wf0piP_t10		free	151.476	8.57077
84	a_bgd_arg_Wf0piP_t0		free	184.802	1.73465
85	a_bgd_arg_Wf0piP_t1		free	186.592	1.62135
86	a_bgd_arg_Wf0piP_t2		free	196.815	1.70426
87	a_bgd_arg_Wf0piP_t3		free	201.627	1.65459
88	a_bgd_arg_Wf0piP_t4		free	201.527	1.57165
89	a_bgd_arg_Wf0piP_t5		free	196.309	1.63071
90	a_bgd_arg_Wf0piP_t6		free	-153.629	1.96471
91	a_bgd_arg_Wf0piP_t7		free	-142.387	1.63245
92	a_bgd_arg_Wf0piP_t8		free	-119.928	1.81164
93	a_bgd_arg_Wf0piP_t9		free	-75.4299	2.33127
94	a_bgd_arg_Wf0piP_t10		free	-35.7347	3.5859
95	a2_1320_M			free	1.31409	0.000102095
96	a2_1320_G			free	0.0921953	0.000177216
97	A_amp_abs_WrhopiD_t0		free	263.154	0.955487
98	A_amp_abs_WrhopiD_t1		free	277.716	0.970202
99	A_amp_abs_WrhopiD_t2		free	295.74	0.996267
100	A_amp_abs_WrhopiD_t3		free	313.839	1.01597
101	A_amp_abs_WrhopiD_t4		free	337.018	1.05246
102	A_amp_abs_WrhopiD_t5		free	363.709	1.08156
103	A_amp_abs_WrhopiD_t6		free	396.259	1.13293
104	A_amp_abs_WrhopiD_t7		free	438.33	1.20051
105	A_amp_abs_WrhopiD_t8		free	491.896	1.2835
106	A_amp_abs_WrhopiD_t9		free	481.77	1.36649
107	A_amp_abs_WrhopiD_t10		free	244.353	1.45705
108	A_amp_arg_WrhopiD_t0		fixed	0	0
109	A_amp_arg_WrhopiD_t1		fixed	0	0
110	A_amp_arg_WrhopiD_t2		fixed	0	0
111	A_amp_arg_WrhopiD_t3		fixed	0	0
112	A_amp_arg_WrhopiD_t4		fixed	0	0
113	A_amp_arg_WrhopiD_t5		fixed	0	0
114	A_amp_arg_WrhopiD_t6		fixed	0	0
115	A_amp_arg_WrhopiD_t7		fixed	0	0
116	A_amp_arg_WrhopiD_t8		fixed	0	0
117	A_amp_arg_WrhopiD_t9		fixed	0	0
118	A_amp_arg_WrhopiD_t10		fixed	0	0
119	b0rhopiD			free	-2.53559	0.118775
120	c0rhopiD			free	5.71959	0.25078
121	c1rhopiD			free	1.02088	0.93503
122	c2rhopiD			free	-1.88512	1.46019
123	a_bgd_abs_WrhopiD_t0		free	168.055	5.54774
124	a_bgd_abs_WrhopiD_t1		free	171.502	5.57195
125	a_bgd_abs_WrhopiD_t2		free	171.616	5.49165
126	a_bgd_abs_WrhopiD_t3		free	173.086	5.48237
127	a_bgd_abs_WrhopiD_t4		free	175.469	5.48751
128	a_bgd_abs_WrhopiD_t5		free	177.99	5.51363
129	a_bgd_abs_WrhopiD_t6		free	178.624	5.52485
130	a_bgd_abs_WrhopiD_t7		free	188.818	5.91941
131	a_bgd_abs_WrhopiD_t8		free	184.818	6.06571
132	a_bgd_abs_WrhopiD_t9		free	193.348	7.66071
133	a_bgd_abs_WrhopiD_t10		free	72.2521	6.38287
134	a_bgd_arg_WrhopiD_t0		free	3.2584	0.711831
135	a_bgd_arg_WrhopiD_t1		free	3.12798	0.720854
136	a_bgd_arg_WrhopiD_t2		free	1.30775	0.766718
137	a_bgd_arg_WrhopiD_t3		free	1.26512	0.785047
138	a_bgd_arg_WrhopiD_t4		free	-1.72211	0.830649
139	a_bgd_arg_WrhopiD_t5		free	-5.37206	0.851966
140	a_bgd_arg_WrhopiD_t6		free	-11.0358	0.920506
141	a_bgd_arg_WrhopiD_t7		free	-13.1978	0.917541
142	a_bgd_arg_WrhopiD_t8		free	-25.8525	1.03798
143	a_bgd_arg_WrhopiD_t9		free	-43.7067	1.09509
144	a_bgd_arg_WrhopiD_t10		free	-45.1996	3.58676

