path_to_data /localhome/wagner/Documents/Fit/data/datapoints/
path_to_theory /localhome/wagner/Documents/Fit/data/datapoints/theory/
path_to_phase_space utils/phase_space/
path_to_output output/

file_waves utils/waves_bw_exc2.dat
file_tprimes utils/tprimes.dat
file_particles utils/particles.dat
file_theory utils/theory.dat

file_parameters utils/minima/test_exc2_bw.pars

data_type sym
phase_space_type sym
chi2_function chi2sym
maximal_chi2 1e+10
maximal_tries 1

minimizer_print_level 2
minimizer_tolerance 1e-30


// the following stuff is not needed (but also doesn't disturb)
// in case you want to use this as an optionfile for a new run.
option_file utils/options_bw_exc2.opt
Random seed 1571433750213248276
Chi2 23025.5
R2part 2528.27
EDM 84.9132
Number of parameters 195
Status 3

Starting parameters of the minimizer:
// Index	Name			Fixed	Value
0	a1_1260_M			free	1.32085
1	a1_1260_G			free	0.317261
2	a1_1640_M			fixed	1.655
3	a1_1640_G			fixed	0.254
4	A_amp_abs_WrhopiS_t0		free	-632.226
5	A_amp_abs_WrhopiS_t1		free	-966.426
6	A_amp_abs_WrhopiS_t2		free	-1034.13
7	A_amp_abs_WrhopiS_t3		free	-1110.27
8	A_amp_abs_WrhopiS_t4		free	-1202.03
9	A_amp_abs_WrhopiS_t5		free	-1294.9
10	A_amp_abs_WrhopiS_t6		free	-1332.46
11	A_amp_abs_WrhopiS_t7		free	-1243.16
12	A_amp_abs_WrhopiS_t8		free	-1126.48
13	A_amp_abs_WrhopiS_t9		free	-976.312
14	A_amp_abs_WrhopiS_t10		free	-649.795
15	A_amp_arg_WrhopiS_t0		free	57.6854
16	A_amp_arg_WrhopiS_t1		free	46.9887
17	A_amp_arg_WrhopiS_t2		free	41.7742
18	A_amp_arg_WrhopiS_t3		free	35.1125
19	A_amp_arg_WrhopiS_t4		free	26.6769
20	A_amp_arg_WrhopiS_t5		free	15.3775
21	A_amp_arg_WrhopiS_t6		free	5.65932
22	A_amp_arg_WrhopiS_t7		free	-1.99089
23	A_amp_arg_WrhopiS_t8		free	-6.10275
24	A_amp_arg_WrhopiS_t9		free	-6.2998
25	A_amp_arg_WrhopiS_t10		free	-0.256175
26	A_amp_abs2_WrhopiS_t0		free	-59.7172
27	A_amp_abs2_WrhopiS_t1		free	-10.9715
28	A_amp_abs2_WrhopiS_t2		free	-28.7941
29	A_amp_abs2_WrhopiS_t3		free	-64.7499
30	A_amp_abs2_WrhopiS_t4		free	-114.657
31	A_amp_abs2_WrhopiS_t5		free	-171.776
32	A_amp_abs2_WrhopiS_t6		free	-213.044
33	A_amp_abs2_WrhopiS_t7		free	-220.544
34	A_amp_abs2_WrhopiS_t8		free	-207.105
35	A_amp_abs2_WrhopiS_t9		free	-156.767
36	A_amp_abs2_WrhopiS_t10		free	-49.5044
37	A_amp_arg2_WrhopiS_t0		free	-211.582
38	A_amp_arg2_WrhopiS_t1		free	-254.734
39	A_amp_arg2_WrhopiS_t2		free	-354.963
40	A_amp_arg2_WrhopiS_t3		free	-383.133
41	A_amp_arg2_WrhopiS_t4		free	-393.874
42	A_amp_arg2_WrhopiS_t5		free	-414.094
43	A_amp_arg2_WrhopiS_t6		free	-432.649
44	A_amp_arg2_WrhopiS_t7		free	-456.969
45	A_amp_arg2_WrhopiS_t8		free	-473.332
46	A_amp_arg2_WrhopiS_t9		free	-482.838
47	A_amp_arg2_WrhopiS_t10		free	-480.179
48	b0rhopiS			free	-0.690468
49	c0rhopiS			free	5.88819
50	c1rhopiS			free	-18.0018
51	c2rhopiS			free	21.6003
52	a_bgd_abs_WrhopiS_t0		free	-2709.62
53	a_bgd_abs_WrhopiS_t1		free	-2409.33
54	a_bgd_abs_WrhopiS_t2		free	-2101.34
55	a_bgd_abs_WrhopiS_t3		free	-1720.96
56	a_bgd_abs_WrhopiS_t4		free	-1314.2
57	a_bgd_abs_WrhopiS_t5		free	-856.82
58	a_bgd_abs_WrhopiS_t6		free	-454.353
59	a_bgd_abs_WrhopiS_t7		free	-172.843
60	a_bgd_abs_WrhopiS_t8		free	-42.2996
61	a_bgd_abs_WrhopiS_t9		free	-4.22491
62	a_bgd_abs_WrhopiS_t10		free	0.0277889
63	a_bgd_arg_WrhopiS_t0		free	34.7273
64	a_bgd_arg_WrhopiS_t1		free	23.9946
65	a_bgd_arg_WrhopiS_t2		free	19.327
66	a_bgd_arg_WrhopiS_t3		free	13.6561
67	a_bgd_arg_WrhopiS_t4		free	4.36588
68	a_bgd_arg_WrhopiS_t5		free	-9.35122
69	a_bgd_arg_WrhopiS_t6		free	-27.1852
70	a_bgd_arg_WrhopiS_t7		free	-36.1146
71	a_bgd_arg_WrhopiS_t8		free	-41.1107
72	a_bgd_arg_WrhopiS_t9		free	-39.8879
73	a_bgd_arg_WrhopiS_t10		free	-36.7868
74	a1_1420_M			free	1.41064
75	a1_1420_G			free	0.129739
76	A_amp_abs_Wf0piP_t0		free	63.9097
77	A_amp_abs_Wf0piP_t1		free	92.1158
78	A_amp_abs_Wf0piP_t2		free	89.2027
79	A_amp_abs_Wf0piP_t3		free	87.7866
80	A_amp_abs_Wf0piP_t4		free	89.4322
81	A_amp_abs_Wf0piP_t5		free	89.0298
82	A_amp_abs_Wf0piP_t6		free	84.4159
83	A_amp_abs_Wf0piP_t7		free	77.4233
84	A_amp_abs_Wf0piP_t8		free	-76.0461
85	A_amp_abs_Wf0piP_t9		free	69.4225
86	A_amp_abs_Wf0piP_t10		free	43.9659
87	A_amp_arg_Wf0piP_t0		free	-38.0469
88	A_amp_arg_Wf0piP_t1		free	-14.2605
89	A_amp_arg_Wf0piP_t2		free	-10.8151
90	A_amp_arg_Wf0piP_t3		free	-5.32104
91	A_amp_arg_Wf0piP_t4		free	-0.88276
92	A_amp_arg_Wf0piP_t5		free	2.79633
93	A_amp_arg_Wf0piP_t6		free	11.9124
94	A_amp_arg_Wf0piP_t7		free	17.5057
95	A_amp_arg_Wf0piP_t8		free	15.6944
96	A_amp_arg_Wf0piP_t9		free	-343.257
97	A_amp_arg_Wf0piP_t10		free	-2146.25
98	c0f0piP				free	4.77329
99	a_bgd_abs_Wf0piP_t0		free	-205.37
100	a_bgd_abs_Wf0piP_t1		free	-843.124
101	a_bgd_abs_Wf0piP_t2		free	-879.344
102	a_bgd_abs_Wf0piP_t3		free	-783.81
103	a_bgd_abs_Wf0piP_t4		free	-885.54
104	a_bgd_abs_Wf0piP_t5		free	-916.012
105	a_bgd_abs_Wf0piP_t6		free	-758.178
106	a_bgd_abs_Wf0piP_t7		free	709.537
107	a_bgd_abs_Wf0piP_t8		free	818.98
108	a_bgd_abs_Wf0piP_t9		free	834.647
109	a_bgd_abs_Wf0piP_t10		free	697.202
110	a_bgd_arg_Wf0piP_t0		free	528.396
111	a_bgd_arg_Wf0piP_t1		free	579.045
112	a_bgd_arg_Wf0piP_t2		free	581.262
113	a_bgd_arg_Wf0piP_t3		free	593.053
114	a_bgd_arg_Wf0piP_t4		free	605.538
115	a_bgd_arg_Wf0piP_t5		free	610.229
116	a_bgd_arg_Wf0piP_t6		free	616.116
117	a_bgd_arg_Wf0piP_t7		free	637.626
118	a_bgd_arg_Wf0piP_t8		free	639.617
119	a_bgd_arg_Wf0piP_t9		free	4615.85
120	a_bgd_arg_Wf0piP_t10		free	11479.1
121	a2_1320_M			free	1.3141
122	a2_1320_G			free	-0.091134
123	a2_1700_M			fixed	1.705
124	a2_1700_G			fixed	0.258
125	A_amp_abs_WrhopiD_t0		free	256.757
126	A_amp_abs_WrhopiD_t1		free	273.037
127	A_amp_abs_WrhopiD_t2		free	286.794
128	A_amp_abs_WrhopiD_t3		free	306.345
129	A_amp_abs_WrhopiD_t4		free	328.338
130	A_amp_abs_WrhopiD_t5		free	354.345
131	A_amp_abs_WrhopiD_t6		free	388.533
132	A_amp_abs_WrhopiD_t7		free	423.753
133	A_amp_abs_WrhopiD_t8		free	473.279
134	A_amp_abs_WrhopiD_t9		free	-526.854
135	A_amp_abs_WrhopiD_t10		free	505.589
136	A_amp_arg_WrhopiD_t0		fixed	0
137	A_amp_arg_WrhopiD_t1		fixed	0
138	A_amp_arg_WrhopiD_t2		fixed	0
139	A_amp_arg_WrhopiD_t3		fixed	0
140	A_amp_arg_WrhopiD_t4		fixed	0
141	A_amp_arg_WrhopiD_t5		fixed	0
142	A_amp_arg_WrhopiD_t6		fixed	0
143	A_amp_arg_WrhopiD_t7		fixed	0
144	A_amp_arg_WrhopiD_t8		fixed	0
145	A_amp_arg_WrhopiD_t9		fixed	0
146	A_amp_arg_WrhopiD_t10		fixed	0
147	A_amp_abs2_WrhopiD_t0		free	24.6279
148	A_amp_abs2_WrhopiD_t1		free	15.2226
149	A_amp_abs2_WrhopiD_t2		free	17.0065
150	A_amp_abs2_WrhopiD_t3		free	14.4937
151	A_amp_abs2_WrhopiD_t4		free	12.9683
152	A_amp_abs2_WrhopiD_t5		free	-21.1009
153	A_amp_abs2_WrhopiD_t6		free	-42.0204
154	A_amp_abs2_WrhopiD_t7		free	-59.1889
155	A_amp_abs2_WrhopiD_t8		free	-67.1916
156	A_amp_abs2_WrhopiD_t9		free	-80.1005
157	A_amp_abs2_WrhopiD_t10		free	68.5556
158	A_amp_arg2_WrhopiD_t0		free	-217.515
159	A_amp_arg2_WrhopiD_t1		free	-217.175
160	A_amp_arg2_WrhopiD_t2		free	-213.722
161	A_amp_arg2_WrhopiD_t3		free	-182.893
162	A_amp_arg2_WrhopiD_t4		free	-143.723
163	A_amp_arg2_WrhopiD_t5		free	-469.037
164	A_amp_arg2_WrhopiD_t6		free	-458.326
165	A_amp_arg2_WrhopiD_t7		free	255.288
166	A_amp_arg2_WrhopiD_t8		free	257.565
167	A_amp_arg2_WrhopiD_t9		free	-109.67
168	A_amp_arg2_WrhopiD_t10		free	1320.59
169	b0rhopiD			free	0.948529
170	c0rhopiD			free	3.11416
171	c1rhopiD			free	-3.13213
172	c2rhopiD			free	1.79223
173	a_bgd_abs_WrhopiD_t0		free	275.074
174	a_bgd_abs_WrhopiD_t1		free	195.339
175	a_bgd_abs_WrhopiD_t2		free	192.222
176	a_bgd_abs_WrhopiD_t3		free	181.091
177	a_bgd_abs_WrhopiD_t4		free	168.92
178	a_bgd_abs_WrhopiD_t5		free	163.318
179	a_bgd_abs_WrhopiD_t6		free	172.473
180	a_bgd_abs_WrhopiD_t7		free	182.579
181	a_bgd_abs_WrhopiD_t8		free	-203.735
182	a_bgd_abs_WrhopiD_t9		free	-215.565
183	a_bgd_abs_WrhopiD_t10		free	212.413
184	a_bgd_arg_WrhopiD_t0		free	4.589
185	a_bgd_arg_WrhopiD_t1		free	-2.15485
186	a_bgd_arg_WrhopiD_t2		free	-1.61411
187	a_bgd_arg_WrhopiD_t3		free	-4.96946
188	a_bgd_arg_WrhopiD_t4		free	-11.647
189	a_bgd_arg_WrhopiD_t5		free	-21.3711
190	a_bgd_arg_WrhopiD_t6		free	-35.6321
191	a_bgd_arg_WrhopiD_t7		free	-39.1667
192	a_bgd_arg_WrhopiD_t8		free	-43.3129
193	a_bgd_arg_WrhopiD_t9		free	-47.6959
194	a_bgd_arg_WrhopiD_t10		free	-771.951

Final parameters of the minimizer:
// Index	Name			Fixed	Value	Error
0	a1_1260_M			free	1.29575	9.19602e-05
1	a1_1260_G			free	0.352592	0.000141849
2	a1_1640_M			fixed	1.655	0
3	a1_1640_G			fixed	0.254	0
4	A_amp_abs_WrhopiS_t0		free	-917.678	1.01014
5	A_amp_abs_WrhopiS_t1		free	-876.432	0.986601
6	A_amp_abs_WrhopiS_t2		free	-835.204	0.958022
7	A_amp_abs_WrhopiS_t3		free	-802.871	0.941584
8	A_amp_abs_WrhopiS_t4		free	-790.578	0.914645
9	A_amp_abs_WrhopiS_t5		free	-777.229	0.8738
10	A_amp_abs_WrhopiS_t6		free	-778.081	0.84185
11	A_amp_abs_WrhopiS_t7		free	-789.249	0.779103
12	A_amp_abs_WrhopiS_t8		free	-808.521	0.689606
13	A_amp_abs_WrhopiS_t9		free	-604.048	0.636575
14	A_amp_abs_WrhopiS_t10		free	198.615	0.602929
15	A_amp_arg_WrhopiS_t0		free	38.5737	0.0572702
16	A_amp_arg_WrhopiS_t1		free	38.1635	0.0595667
17	A_amp_arg_WrhopiS_t2		free	35.6472	0.0622417
18	A_amp_arg_WrhopiS_t3		free	32.7123	0.0634444
19	A_amp_arg_WrhopiS_t4		free	26.9216	0.0632342
20	A_amp_arg_WrhopiS_t5		free	24.6466	0.0628755
21	A_amp_arg_WrhopiS_t6		free	19.5851	0.0639475
22	A_amp_arg_WrhopiS_t7		free	13.513	0.0662271
23	A_amp_arg_WrhopiS_t8		free	4.53851	0.0731348
24	A_amp_arg_WrhopiS_t9		free	-4.21968	0.112495
25	A_amp_arg_WrhopiS_t10		free	5.2289	0.299513
26	A_amp_abs2_WrhopiS_t0		free	-39.4455	0.739647
27	A_amp_abs2_WrhopiS_t1		free	-41.7532	0.74634
28	A_amp_abs2_WrhopiS_t2		free	32.2047	0.744233
29	A_amp_abs2_WrhopiS_t3		free	-27.1118	0.713289
30	A_amp_abs2_WrhopiS_t4		free	-14.5835	0.684946
31	A_amp_abs2_WrhopiS_t5		free	-5.6304	0.679718
32	A_amp_abs2_WrhopiS_t6		free	-12.8793	0.616569
33	A_amp_abs2_WrhopiS_t7		free	-33.1012	0.59395
34	A_amp_abs2_WrhopiS_t8		free	-60.4596	0.609224
35	A_amp_abs2_WrhopiS_t9		free	-28.4142	0.706759
36	A_amp_abs2_WrhopiS_t10		free	16.6885	0.482639
37	A_amp_arg2_WrhopiS_t0		free	-255.837	0.965647
38	A_amp_arg2_WrhopiS_t1		free	-251.459	0.902353
39	A_amp_arg2_WrhopiS_t2		free	-229.399	1.15363
40	A_amp_arg2_WrhopiS_t3		free	-587.054	1.36721
41	A_amp_arg2_WrhopiS_t4		free	-535.474	2.47971
42	A_amp_arg2_WrhopiS_t5		free	-516.165	6.00005
43	A_amp_arg2_WrhopiS_t6		free	-395.374	2.84625
44	A_amp_arg2_WrhopiS_t7		free	-383.175	1.12594
45	A_amp_arg2_WrhopiS_t8		free	-392.403	0.580447
46	A_amp_arg2_WrhopiS_t9		free	-427.962	1.12925
47	A_amp_arg2_WrhopiS_t10		free	407.037	2.46369
48	b0rhopiS			free	-0.601384	0.000519705
49	c0rhopiS			free	2.93047	0.00111583
50	c1rhopiS			free	6.68092	0.00736584
51	c2rhopiS			free	-37.7845	0.0361877
52	a_bgd_abs_WrhopiS_t0		free	-2189.02	1.59856
53	a_bgd_abs_WrhopiS_t1		free	-2100.14	1.56128
54	a_bgd_abs_WrhopiS_t2		free	-1940.06	1.54065
55	a_bgd_abs_WrhopiS_t3		free	-1792.51	1.52062
56	a_bgd_abs_WrhopiS_t4		free	-1572.43	1.51021
57	a_bgd_abs_WrhopiS_t5		free	-1383.06	1.47877
58	a_bgd_abs_WrhopiS_t6		free	-1110.6	1.48551
59	a_bgd_abs_WrhopiS_t7		free	-780.913	1.44097
60	a_bgd_abs_WrhopiS_t8		free	-343.422	1.25441
61	a_bgd_abs_WrhopiS_t9		free	10.2621	0.136822
62	a_bgd_abs_WrhopiS_t10		free	-0.000135262	1.39583e-05
63	a_bgd_arg_WrhopiS_t0		free	20.541	0.0535711
64	a_bgd_arg_WrhopiS_t1		free	22.1634	0.0553027
65	a_bgd_arg_WrhopiS_t2		free	24.0049	0.0583465
66	a_bgd_arg_WrhopiS_t3		free	24.4418	0.0598113
67	a_bgd_arg_WrhopiS_t4		free	24.2541	0.0617948
68	a_bgd_arg_WrhopiS_t5		free	25.0857	0.0624869
69	a_bgd_arg_WrhopiS_t6		free	23.9643	0.0661473
70	a_bgd_arg_WrhopiS_t7		free	21.2419	0.0734386
71	a_bgd_arg_WrhopiS_t8		free	12.5876	0.103825
72	a_bgd_arg_WrhopiS_t9		free	-10.8072	3.08471
73	a_bgd_arg_WrhopiS_t10		free	-2.77744	9.62992
74	a1_1420_M			free	1.41343	0.000171111
75	a1_1420_G			free	0.136981	0.000301781
76	A_amp_abs_Wf0piP_t0		free	70.0724	0.379794
77	A_amp_abs_Wf0piP_t1		free	66.7099	0.370759
78	A_amp_abs_Wf0piP_t2		free	69.2591	0.363585
79	A_amp_abs_Wf0piP_t3		free	70.1842	0.359834
80	A_amp_abs_Wf0piP_t4		free	71.1266	0.349451
81	A_amp_abs_Wf0piP_t5		free	68.0636	0.346114
82	A_amp_abs_Wf0piP_t6		free	66.6998	0.341987
83	A_amp_abs_Wf0piP_t7		free	-69.8626	0.337029
84	A_amp_abs_Wf0piP_t8		free	69.0674	0.333169
85	A_amp_abs_Wf0piP_t9		free	52.4817	0.338142
86	A_amp_abs_Wf0piP_t10		free	9.91432	0.556204
87	A_amp_arg_Wf0piP_t0		free	-30.8323	0.379054
88	A_amp_arg_Wf0piP_t1		free	-30.703	0.380903
89	A_amp_arg_Wf0piP_t2		free	-26.4966	0.366069
90	A_amp_arg_Wf0piP_t3		free	-29.473	0.354364
91	A_amp_arg_Wf0piP_t4		free	-29.6015	0.341234
92	A_amp_arg_Wf0piP_t5		free	-27.8234	0.349987
93	A_amp_arg_Wf0piP_t6		free	-24.1886	0.353794
94	A_amp_arg_Wf0piP_t7		free	-25.9152	0.330411
95	A_amp_arg_Wf0piP_t8		free	-379.337	0.327195
96	A_amp_arg_Wf0piP_t9		free	-2170.54	0.424468
97	A_amp_arg_Wf0piP_t10		free	8.56511e+06	1.86324
98	c0f0piP				free	5.5197	0.025759
99	a_bgd_abs_Wf0piP_t0		free	-223.56	2.9642
100	a_bgd_abs_Wf0piP_t1		free	-243.979	2.88727
101	a_bgd_abs_Wf0piP_t2		free	-210.286	2.82797
102	a_bgd_abs_Wf0piP_t3		free	-229.912	2.87685
103	a_bgd_abs_Wf0piP_t4		free	-217.36	2.70638
104	a_bgd_abs_Wf0piP_t5		free	-212.352	2.69941
105	a_bgd_abs_Wf0piP_t6		free	188.076	2.70802
106	a_bgd_abs_Wf0piP_t7		free	215.682	2.68006
107	a_bgd_abs_Wf0piP_t8		free	216.288	2.68068
108	a_bgd_abs_Wf0piP_t9		free	202.036	2.66866
109	a_bgd_abs_Wf0piP_t10		free	-45.6686	4.30385
110	a_bgd_arg_Wf0piP_t0		free	541.159	0.75878
111	a_bgd_arg_Wf0piP_t1		free	542.272	0.676241
112	a_bgd_arg_Wf0piP_t2		free	553.261	0.774542
113	a_bgd_arg_Wf0piP_t3		free	555.415	0.705627
114	a_bgd_arg_Wf0piP_t4		free	558.356	0.719798
115	a_bgd_arg_Wf0piP_t5		free	551.61	0.72646
116	a_bgd_arg_Wf0piP_t6		free	565.619	0.815261
117	a_bgd_arg_Wf0piP_t7		free	578.976	0.683171
118	a_bgd_arg_Wf0piP_t8		free	4563.38	0.66517
119	a_bgd_arg_Wf0piP_t9		free	11441.5	0.718575
120	a_bgd_arg_Wf0piP_t10		free	4.03882e+08	9.31533
121	a2_1320_M			free	1.31359	3.56241e-05
122	a2_1320_G			free	-0.088782	4.34034e-05
123	a2_1700_M			fixed	1.705	0
124	a2_1700_G			fixed	0.258	0
125	A_amp_abs_WrhopiD_t0		free	254.453	0.34351
126	A_amp_abs_WrhopiD_t1		free	267.302	0.348452
127	A_amp_abs_WrhopiD_t2		free	284.809	0.340752
128	A_amp_abs_WrhopiD_t3		free	301.943	0.346442
129	A_amp_abs_WrhopiD_t4		free	323.163	0.348926
130	A_amp_abs_WrhopiD_t5		free	350.016	0.350928
131	A_amp_abs_WrhopiD_t6		free	380.906	0.354982
132	A_amp_abs_WrhopiD_t7		free	424.25	0.363772
133	A_amp_abs_WrhopiD_t8		free	-480.163	0.378421
134	A_amp_abs_WrhopiD_t9		free	478.343	0.404715
135	A_amp_abs_WrhopiD_t10		free	243.187	0.417816
136	A_amp_arg_WrhopiD_t0		fixed	0	0
137	A_amp_arg_WrhopiD_t1		fixed	0	0
138	A_amp_arg_WrhopiD_t2		fixed	0	0
139	A_amp_arg_WrhopiD_t3		fixed	0	0
140	A_amp_arg_WrhopiD_t4		fixed	0	0
141	A_amp_arg_WrhopiD_t5		fixed	0	0
142	A_amp_arg_WrhopiD_t6		fixed	0	0
143	A_amp_arg_WrhopiD_t7		fixed	0	0
144	A_amp_arg_WrhopiD_t8		fixed	0	0
145	A_amp_arg_WrhopiD_t9		fixed	0	0
146	A_amp_arg_WrhopiD_t10		fixed	0	0
147	A_amp_abs2_WrhopiD_t0		free	20.7636	0.449971
148	A_amp_abs2_WrhopiD_t1		free	23.4542	0.480071
149	A_amp_abs2_WrhopiD_t2		free	23.2588	0.340736
150	A_amp_abs2_WrhopiD_t3		free	23.5203	0.500631
151	A_amp_abs2_WrhopiD_t4		free	-22.1327	0.490196
152	A_amp_abs2_WrhopiD_t5		free	-21.3958	0.480749
153	A_amp_abs2_WrhopiD_t6		free	-26.1278	0.492584
154	A_amp_abs2_WrhopiD_t7		free	-28.3794	0.525074
155	A_amp_abs2_WrhopiD_t8		free	-40.1893	0.535673
156	A_amp_abs2_WrhopiD_t9		free	54.7313	0.63029
157	A_amp_abs2_WrhopiD_t10		free	34.3116	0.665639
158	A_amp_arg2_WrhopiD_t0		free	-208.766	0.946949
159	A_amp_arg2_WrhopiD_t1		free	-210.364	0.956537
160	A_amp_arg2_WrhopiD_t2		free	-202.955	0.884344
161	A_amp_arg2_WrhopiD_t3		free	-202.864	0.985761
162	A_amp_arg2_WrhopiD_t4		free	-559.571	1.06715
163	A_amp_arg2_WrhopiD_t5		free	-548.047	1.12952
164	A_amp_arg2_WrhopiD_t6		free	174.406	0.910605
165	A_amp_arg2_WrhopiD_t7		free	183.983	0.846693
166	A_amp_arg2_WrhopiD_t8		free	-154.278	0.605107
167	A_amp_arg2_WrhopiD_t9		free	1302.58	0.442914
168	A_amp_arg2_WrhopiD_t10		free	140963	0.804043
169	b0rhopiD			free	-0.367089	0.0014575
170	c0rhopiD			free	1.92816	0.00316691
171	c1rhopiD			free	0.44044	0.0131771
172	c2rhopiD			free	-1.87545	0.0304449
173	a_bgd_abs_WrhopiD_t0		free	303.819	0.972974
174	a_bgd_abs_WrhopiD_t1		free	309.11	1.06503
175	a_bgd_abs_WrhopiD_t2		free	306.666	0.99024
176	a_bgd_abs_WrhopiD_t3		free	312.083	1.09531
177	a_bgd_abs_WrhopiD_t4		free	311.374	1.10638
178	a_bgd_abs_WrhopiD_t5		free	304.72	1.0595
179	a_bgd_abs_WrhopiD_t6		free	303.323	0.99607
180	a_bgd_abs_WrhopiD_t7		free	-304.678	1.02469
181	a_bgd_abs_WrhopiD_t8		free	-302.321	1.14768
182	a_bgd_abs_WrhopiD_t9		free	357.951	1.40431
183	a_bgd_abs_WrhopiD_t10		free	141.676	1.20784
184	a_bgd_arg_WrhopiD_t0		free	3.51915	0.206594
185	a_bgd_arg_WrhopiD_t1		free	5.31351	0.210376
186	a_bgd_arg_WrhopiD_t2		free	3.95562	0.174209
187	a_bgd_arg_WrhopiD_t3		free	4.65375	0.21176
188	a_bgd_arg_WrhopiD_t4		free	3.55447	0.213219
189	a_bgd_arg_WrhopiD_t5		free	0.374675	0.237567
190	a_bgd_arg_WrhopiD_t6		free	-4.02116	0.251315
191	a_bgd_arg_WrhopiD_t7		free	-9.89987	0.255951
192	a_bgd_arg_WrhopiD_t8		free	-26.4482	0.216186
193	a_bgd_arg_WrhopiD_t9		free	-768.386	0.161484
194	a_bgd_arg_WrhopiD_t10		free	205512	0.38531

