0.51	0.000888154
0.515	0.00107047
0.52	0.00125494
0.525	0.00148797
0.53	0.00172383
0.535	0.00201536
0.54	0.00231055
0.545	0.00267189
0.55	0.00303787
0.555	0.00347806
0.56	0.00392403
0.565	0.00445799
0.57	0.00499914
0.575	0.00563705
0.58	0.00628377
0.585	0.00704545
0.59	0.00781792
0.595	0.00871456
0.6	0.0096242
0.605	0.0106822
0.61	0.0117558
0.615	0.012987
0.62	0.014237
0.625	0.0156765
0.63	0.0171385
0.635	0.0187985
0.64	0.020485
0.645	0.0224123
0.65	0.0243709
0.655	0.026577
0.66	0.0288199
0.665	0.0313669
0.67	0.0339573
0.675	0.0368559
0.68	0.0398051
0.685	0.0431369
0.69	0.0465281
0.695	0.0503019
0.7	0.0541445
0.705	0.0584677
0.71	0.0628715
0.715	0.0677497
0.72	0.0727208
0.725	0.0782948
0.73	0.0839774
0.735	0.0902485
0.74	0.0966445
0.745	0.103796
0.75	0.111094
0.755	0.119123
0.76	0.127319
0.765	0.136463
0.77	0.145802
0.775	0.156052
0.78	0.166524
0.785	0.178189
0.79	0.190113
0.795	0.203175
0.8	0.216534
0.805	0.231396
0.81	0.246604
0.815	0.263239
0.82	0.28027
0.825	0.299202
0.83	0.318593
0.835	0.339787
0.84	0.361508
0.845	0.385643
0.85	0.410392
0.855	0.437431
0.86	0.465173
0.865	0.495999
0.87	0.527644
0.875	0.562223
0.88	0.597742
0.885	0.637224
0.89	0.677806
0.895	0.722177
0.9	0.767813
0.905	0.818583
0.91	0.870833
0.915	0.928032
0.92	0.986938
0.925	1.05256
0.93	1.12018
0.935	1.19435
0.94	1.27083
0.945	1.35619
0.95	1.44428
0.955	1.54114
0.96	1.64117
0.965	1.75309
0.97	1.86879
0.975	1.9964
0.98	2.12843
0.985	2.27662
0.99	2.43008
0.995	2.60007
1	2.77625
1.005	2.97487
1.01	3.18091
1.015	3.41045
1.02	3.64879
1.025	3.91908
1.03	4.20001
1.035	4.51532
1.04	4.8434
1.045	5.21839
1.05	5.609
1.055	6.0519
1.06	6.51376
1.065	7.04765
1.07	7.60509
1.075	8.24639
1.08	8.91685
1.085	9.70513
1.09	10.5304
1.095	11.5013
1.1	12.5192
1.105	13.7497
1.11	15.0419
1.115	16.6195
1.12	18.2787
1.125	20.3696
1.13	22.5725
1.135	25.266
1.14	28.109
1.145	31.4557
1.15	34.9941
1.155	39.0285
1.16	43.3014
1.165	48.1188
1.17	53.2297
1.175	58.8856
1.18	64.8968
1.185	71.5462
1.19	78.6263
1.195	86.3796
1.2	94.6505
1.205	103.672
1.21	113.313
1.215	123.834
1.22	135.1
1.225	147.355
1.23	160.505
1.235	174.806
1.24	190.185
1.245	206.806
1.25	224.716
1.255	244.339
1.26	265.529
1.265	288.384
1.27	313.109
1.275	340.279
1.28	369.735
1.285	401.577
1.29	436.15
1.295	473.966
1.3	515.08
1.305	560.075
1.31	609.036
1.315	662.155
1.32	719.943
1.325	782.855
1.33	851.203
1.335	925.606
1.34	1006.18
1.345	1093.18
1.35	1186.83
1.355	1287.18
1.36	1394.15
1.365	1507.55
1.37	1626.6
1.375	1750.32
1.38	1877.26
1.385	2005.88
1.39	2133.47
1.395	2257.71
1.4	2374.92
1.405	2480.92
1.41	2573.08
1.415	2648.55
1.42	2704.63
1.425	2739.39
1.43	2752.33
1.435	2744.04
1.44	2715.41
1.445	2667.13
1.45	2603.19
1.455	2528.39
1.46	2443.59
1.465	2349.85
1.47	2251.74
1.475	2153.26
1.48	2054.32
1.485	1954.83
1.49	1857.74
1.495	1764.47
1.5	1674.93
1.505	1589.78
1.51	1508.9
1.515	1431.98
1.52	1359.44
1.525	1291.53
1.53	1227.7
1.535	1167.26
1.54	1110.6
1.545	1057.61
1.55	1007.96
1.555	961.518
1.56	917.987
1.565	876.959
1.57	838.48
1.575	802.483
1.58	768.675
1.585	736.823
1.59	706.868
1.595	678.7
1.6	652.165
1.605	627.025
1.61	603.308
1.615	581.082
1.62	560.071
1.625	540.115
1.63	521.221
1.635	503.254
1.64	486.217
1.645	470.039
1.65	454.674
1.655	440.036
1.66	426.113
1.665	412.965
1.67	400.436
1.675	388.49
1.68	377.09
1.685	366.067
1.69	355.537
1.695	345.663
1.7	336.213
1.705	326.935
1.71	318.051
1.715	309.713
1.72	301.714
1.725	293.86
1.73	286.32
1.735	279.216
1.74	272.385
1.745	265.684
1.75	259.237
1.755	253.08
1.76	247.149
1.765	241.401
1.77	235.86
1.775	230.535
1.78	225.397
1.785	220.438
1.79	215.648
1.795	211.028
1.8	206.561
1.805	202.202
1.81	197.985
1.815	193.943
1.82	190.03
1.825	186.128
1.83	182.349
1.835	178.858
1.84	175.472
1.845	172.02
1.85	168.673
1.855	165.555
1.86	162.527
1.865	159.512
1.87	156.584
1.875	153.786
1.88	151.066
1.885	148.361
1.89	145.73
1.895	143.204
1.9	140.747
1.905	138.368
1.91	136.052
1.915	133.77
1.92	131.547
1.925	129.371
1.93	127.251
1.935	125.215
1.94	123.23
1.945	121.257
1.95	119.333
1.955	117.477
1.96	115.665
1.965	113.887
1.97	112.151
1.975	110.471
1.98	108.83
1.985	107.19
1.99	105.588
1.995	104.038
2	102.524
2.005	101.032
2.01	99.5728
2.015	98.185
2.02	96.827
2.025	95.4516
2.03	94.106
2.035	92.8263
2.04	91.5734
2.045	90.3263
2.05	89.1052
2.055	87.9162
2.06	86.7515
2.065	85.6027
2.07	84.4773
2.075	83.3783
2.08	82.3012
2.085	81.2429
2.09	80.2053
2.095	79.1763
2.1	78.1675
2.105	77.2007
2.11	76.2522
2.115	75.2905
2.12	74.3473
2.125	73.4594
2.13	72.5877
2.135	71.6843
2.14	70.7979
2.145	69.9797
2.15	69.1759
2.155	68.3293
2.16	67.4982
2.165	66.7358
2.17	65.9866
2.175	65.1982
2.18	64.424
2.185	63.7131
2.19	63.0142
2.195	62.2857
2.2	61.5699
2.205	60.9116
2.21	60.2641
2.215	59.5811
2.22	58.9098
2.225	58.2914
2.23	57.6829
2.235	57.0432
2.24	56.414
2.245	55.8307
2.25	55.2565
2.255	54.6597
2.26	54.0726
2.265	53.5146
2.27	52.9652
2.275	52.4133
2.28	51.87
2.285	51.3349
2.29	50.8082
2.295	50.3037
2.3	49.8068
2.305	49.299
2.31	48.799
2.315	48.3279
2.32	47.8637
2.325	47.3755
2.33	46.8948
2.335	46.4475
2.34	46.0067
2.345	45.5602
2.35	45.1202
2.355	44.6931
2.36	44.272
2.365	43.8443
2.37	43.4227
2.375	43.0218
2.38	42.6264
2.385	42.2108
2.39	41.8012
2.395	41.4256
2.4	41.0551
2.405	40.6694
2.41	40.2891
2.415	39.9268
2.42	39.5695
2.425	39.2083
2.43	38.8521
2.435	38.508
2.44	38.1684
2.445	37.8378
2.45	37.5115
2.455	37.1707
2.46	36.8344
2.465	36.5254
2.47	36.2202
2.475	35.898
2.48	35.5799
2.485	35.2805
2.49	34.9849
