0.51	-172.162
0.515	-171.47
0.52	-170.922
0.525	-170.467
0.53	-170.077
0.535	-169.737
0.54	-169.435
0.545	-169.165
0.55	-168.92
0.555	-168.696
0.56	-168.491
0.565	-168.301
0.57	-168.125
0.575	-167.962
0.58	-167.808
0.585	-167.665
0.59	-167.53
0.595	-167.403
0.6	-167.283
0.605	-167.17
0.61	-167.062
0.615	-166.96
0.62	-166.863
0.625	-166.771
0.63	-166.683
0.635	-166.599
0.64	-166.519
0.645	-166.443
0.65	-166.37
0.655	-166.301
0.66	-166.235
0.665	-166.172
0.67	-166.111
0.675	-166.054
0.68	-165.999
0.685	-165.947
0.69	-165.897
0.695	-165.851
0.7	-165.806
0.705	-165.764
0.71	-165.724
0.715	-165.688
0.72	-165.652
0.725	-165.621
0.73	-165.59
0.735	-165.564
0.74	-165.538
0.745	-165.517
0.75	-165.497
0.755	-165.481
0.76	-165.466
0.765	-165.457
0.77	-165.448
0.775	-165.445
0.78	-165.443
0.785	-165.447
0.79	-165.452
0.795	-165.464
0.8	-165.477
0.805	-165.498
0.81	-165.52
0.815	-165.551
0.82	-165.584
0.825	-165.627
0.83	-165.671
0.835	-165.727
0.84	-165.784
0.845	-165.855
0.85	-165.927
0.855	-166.014
0.86	-166.103
0.865	-166.208
0.87	-166.315
0.875	-166.439
0.88	-166.565
0.885	-166.708
0.89	-166.854
0.895	-167.015
0.9	-167.179
0.905	-167.358
0.91	-167.54
0.915	-167.733
0.92	-167.93
0.925	-168.136
0.93	-168.346
0.935	-168.563
0.94	-168.783
0.945	-169.009
0.95	-169.239
0.955	-169.473
0.96	-169.712
0.965	-169.954
0.97	-170.2
0.975	-170.45
0.98	-170.706
0.985	-170.963
0.99	-171.226
0.995	-171.493
1	-171.766
1.005	-172.041
1.01	-172.322
1.015	-172.609
1.02	-172.902
1.025	-173.198
1.03	-173.502
1.035	-173.812
1.04	-174.129
1.045	-174.45
1.05	-174.779
1.055	-175.115
1.06	-175.46
1.065	-175.809
1.07	-176.167
1.075	-176.534
1.08	-176.909
1.085	-177.289
1.09	-177.678
1.095	-178.076
1.1	-178.482
1.105	-178.891
1.11	-179.306
1.115	-179.726
1.12	179.856
1.125	179.452
1.13	179.067
1.135	178.709
1.14	178.38
1.145	178.077
1.15	177.793
1.155	177.525
1.16	177.276
1.165	177.047
1.17	176.837
1.175	176.651
1.18	176.493
1.185	176.363
1.19	176.267
1.195	176.214
1.2	176.208
1.205	176.252
1.21	176.357
1.215	176.538
1.22	176.803
1.225	177.157
1.23	177.624
1.235	178.233
1.24	178.999
1.245	179.94
1.25	-178.896
1.255	-177.449
1.26	-175.672
1.265	-173.507
1.27	-170.839
1.275	-167.522
1.28	-163.408
1.285	-158.314
1.29	-151.977
1.295	-144.129
1.3	-134.649
1.305	-123.685
1.31	-111.744
1.315	-99.682
1.32	-88.4127
1.325	-78.5053
1.33	-70.0409
1.335	-62.8368
1.34	-56.6821
1.345	-51.3722
1.35	-46.6585
1.355	-42.3347
1.36	-38.3073
1.365	-34.5181
1.37	-30.8475
1.375	-27.1964
1.38	-23.5588
1.385	-19.9448
1.39	-16.2886
1.395	-12.5371
1.4	-8.7236
1.405	-4.89094
1.41	-1.00545
1.415	2.95643
1.42	6.9392
1.425	10.8833
1.43	14.8055
1.435	18.7169
1.44	22.5612
1.445	26.2849
1.45	29.9075
1.455	33.4462
1.46	36.861
1.465	40.1167
1.47	43.2419
1.475	46.2621
1.48	49.1526
1.485	51.8923
1.49	54.5128
1.495	57.0403
1.5	59.4585
1.505	61.7535
1.51	63.9534
1.515	66.0804
1.52	68.1222
1.525	70.0685
1.53	71.9417
1.535	73.7586
1.54	75.5094
1.545	77.1867
1.55	78.8069
1.555	80.3817
1.56	81.9037
1.565	83.3682
1.57	84.7864
1.575	86.1657
1.58	87.5013
1.585	88.7909
1.59	90.0415
1.595	91.257
1.6	92.4351
1.605	93.5758
1.61	94.6828
1.615	95.7573
1.62	96.7992
1.625	97.8102
1.63	98.7916
1.635	99.7428
1.64	100.665
1.645	101.562
1.65	102.433
1.655	103.276
1.66	104.094
1.665	104.891
1.67	105.665
1.675	106.413
1.68	107.139
1.685	107.848
1.69	108.537
1.695	109.202
1.7	109.849
1.705	110.482
1.71	111.097
1.715	111.691
1.72	112.269
1.725	112.835
1.73	113.387
1.735	113.92
1.74	114.439
1.745	114.949
1.75	115.447
1.755	115.928
1.76	116.397
1.765	116.859
1.77	117.31
1.775	117.747
1.78	118.173
1.785	118.595
1.79	119.008
1.795	119.407
1.8	119.798
1.805	120.186
1.81	120.566
1.815	120.934
1.82	121.296
1.825	121.655
1.83	122.008
1.835	122.351
1.84	122.688
1.845	123.023
1.85	123.353
1.855	123.675
1.86	123.993
1.865	124.309
1.87	124.621
1.875	124.926
1.88	125.228
1.885	125.529
1.89	125.826
1.895	126.119
1.9	126.409
1.905	126.698
1.91	126.984
1.915	127.268
1.92	127.55
1.925	127.83
1.93	128.109
1.935	128.388
1.94	128.665
1.945	128.941
1.95	129.217
1.955	129.494
1.96	129.771
1.965	130.046
1.97	130.322
1.975	130.601
1.98	130.882
1.985	131.162
1.99	131.443
1.995	131.73
2	132.019
2.005	132.308
2.01	132.601
2.015	132.901
2.02	133.206
2.025	133.512
2.03	133.824
2.035	134.146
2.04	134.474
2.045	134.807
2.05	135.149
2.055	135.503
2.06	135.867
2.065	136.24
2.07	136.627
2.075	137.029
2.08	137.448
2.085	137.882
2.09	138.335
2.095	138.812
2.1	139.313
2.105	139.84
2.11	140.397
2.115	140.989
2.12	141.62
2.125	142.293
2.13	143.015
2.135	143.796
2.14	144.641
2.145	145.56
2.15	146.565
2.155	147.672
2.16	148.898
2.165	150.263
2.17	151.794
2.175	153.525
2.18	155.498
2.185	157.763
2.19	160.388
2.195	163.461
2.2	167.087
2.205	171.396
2.21	176.548
2.215	-177.279
2.22	-169.935
2.225	-161.358
2.23	-151.667
2.235	-141.252
2.24	-130.741
2.245	-120.795
2.25	-111.88
2.255	-104.195
2.26	-97.7149
2.265	-92.3
2.27	-87.7799
2.275	-83.9935
2.28	-80.7971
2.285	-78.0743
2.29	-75.7365
2.295	-73.7143
2.3	-71.9492
2.305	-70.3956
2.31	-69.0195
2.315	-67.7934
2.32	-66.6937
2.325	-65.702
2.33	-64.8031
2.335	-63.9841
2.34	-63.235
2.345	-62.5483
2.35	-61.9154
2.355	-61.3285
2.36	-60.7841
2.365	-60.2797
2.37	-59.8091
2.375	-59.3665
2.38	-58.9515
2.385	-58.5645
2.39	-58.2002
2.395	-57.8531
2.4	-57.5251
2.405	-57.2182
2.41	-56.9272
2.415	-56.6469
2.42	-56.3802
2.425	-56.1305
2.43	-55.8923
2.435	-55.6607
2.44	-55.4394
2.445	-55.2318
2.45	-55.0329
2.455	-54.838
2.46	-54.6511
2.465	-54.4756
2.47	-54.3069
2.475	-54.1406
2.48	-53.9804
2.485	-53.83
2.49	-53.6849
