path_to_data /localhome/wagner/Documents/Fit/data/datapoints/
path_to_theory /localhome/wagner/Documents/Fit/data/datapoints/theory/
path_to_phase_space utils/phase_space/
path_to_output output/

file_waves utils/waves.dat
file_tprimes utils/tprimes.dat
file_particles utils/particles.dat
file_theory utils/theory_spin.dat

file_parameters utils/minima/new_result_spin.pars

data_type sym
phase_space_type sym
chi2_function chi2sym
maximal_chi2 1e+10
maximal_tries 1

minimizer_print_level 2
minimizer_tolerance 1e-30


// the following stuff is not needed (but also doesn't disturb)
// in case you want to use this as an optionfile for a new run.
option_file utils/options_spin.opt
Random seed 1571417216598172813
Chi2 19960.9
R2part 2422.1
EDM 1.65388e-07
Number of parameters 145
Status 3

Starting parameters of the minimizer:
// Index	Name			Fixed	Value
0	a1_1260_M			free	1.3073
1	a1_1260_G			free	0.361144
2	A_amp_abs_WrhopiS_t0		free	973.297
3	A_amp_abs_WrhopiS_t1		free	1047.03
4	A_amp_abs_WrhopiS_t2		free	1042.74
5	A_amp_abs_WrhopiS_t3		free	1031.65
6	A_amp_abs_WrhopiS_t4		free	1033.29
7	A_amp_abs_WrhopiS_t5		free	1037.97
8	A_amp_abs_WrhopiS_t6		free	1051.64
9	A_amp_abs_WrhopiS_t7		free	1052.6
10	A_amp_abs_WrhopiS_t8		free	1021.05
11	A_amp_abs_WrhopiS_t9		free	923.983
12	A_amp_abs_WrhopiS_t10		free	633.241
13	A_amp_arg_WrhopiS_t0		free	42.4282
14	A_amp_arg_WrhopiS_t1		free	44.3349
15	A_amp_arg_WrhopiS_t2		free	40.9208
16	A_amp_arg_WrhopiS_t3		free	37.4889
17	A_amp_arg_WrhopiS_t4		free	32.5362
18	A_amp_arg_WrhopiS_t5		free	26.2779
19	A_amp_arg_WrhopiS_t6		free	20.265
20	A_amp_arg_WrhopiS_t7		free	13.4401
21	A_amp_arg_WrhopiS_t8		free	5.96314
22	A_amp_arg_WrhopiS_t9		free	-0.554244
23	A_amp_arg_WrhopiS_t10		free	-1.97157
24	b0rhopiS			free	0.685189
25	c0rhopiS			free	4.23905
26	c1rhopiS			free	-9.4708
27	c2rhopiS			free	11.088
28	a_bgd_abs_WrhopiS_t0		free	2214.67
29	a_bgd_abs_WrhopiS_t1		free	2322.03
30	a_bgd_abs_WrhopiS_t2		free	2118.88
31	a_bgd_abs_WrhopiS_t3		free	1888.13
32	a_bgd_abs_WrhopiS_t4		free	1647.06
33	a_bgd_abs_WrhopiS_t5		free	1376.54
34	a_bgd_abs_WrhopiS_t6		free	1078.15
35	a_bgd_abs_WrhopiS_t7		free	761.57
36	a_bgd_abs_WrhopiS_t8		free	449.086
37	a_bgd_abs_WrhopiS_t9		free	171.177
38	a_bgd_abs_WrhopiS_t10		free	15.8801
39	a_bgd_arg_WrhopiS_t0		free	20.4406
40	a_bgd_arg_WrhopiS_t1		free	21.3267
41	a_bgd_arg_WrhopiS_t2		free	20.2755
42	a_bgd_arg_WrhopiS_t3		free	19.5398
43	a_bgd_arg_WrhopiS_t4		free	17.2217
44	a_bgd_arg_WrhopiS_t5		free	14.1216
45	a_bgd_arg_WrhopiS_t6		free	10.5742
46	a_bgd_arg_WrhopiS_t7		free	5.79979
47	a_bgd_arg_WrhopiS_t8		free	0.437373
48	a_bgd_arg_WrhopiS_t9		free	-4.27904
49	a_bgd_arg_WrhopiS_t10		free	11.6199
50	A_amp_abs_Wf0piP_t0		free	1158.13
51	A_amp_abs_Wf0piP_t1		free	1301.88
52	A_amp_abs_Wf0piP_t2		free	1260.04
53	A_amp_abs_Wf0piP_t3		free	1252.31
54	A_amp_abs_Wf0piP_t4		free	1282.41
55	A_amp_abs_Wf0piP_t5		free	1293.7
56	A_amp_abs_Wf0piP_t6		free	1233.39
57	A_amp_abs_Wf0piP_t7		free	1151.19
58	A_amp_abs_Wf0piP_t8		free	1130.37
59	A_amp_abs_Wf0piP_t9		free	1024.92
60	A_amp_abs_Wf0piP_t10		free	-666.18
61	A_amp_arg_Wf0piP_t0		free	61.9872
62	A_amp_arg_Wf0piP_t1		free	74.9407
63	A_amp_arg_Wf0piP_t2		free	78.0117
64	A_amp_arg_Wf0piP_t3		free	82.6087
65	A_amp_arg_Wf0piP_t4		free	83.4988
66	A_amp_arg_Wf0piP_t5		free	83.4364
67	A_amp_arg_Wf0piP_t6		free	88.2842
68	A_amp_arg_Wf0piP_t7		free	94.5617
69	A_amp_arg_Wf0piP_t8		free	93.5861
70	A_amp_arg_Wf0piP_t9		free	96.6018
71	A_amp_arg_Wf0piP_t10		free	95.4418
72	c0f0piP				free	10.4236
73	a_bgd_abs_Wf0piP_t0		free	441.149
74	a_bgd_abs_Wf0piP_t1		free	670.261
75	a_bgd_abs_Wf0piP_t2		free	704.41
76	a_bgd_abs_Wf0piP_t3		free	623.222
77	a_bgd_abs_Wf0piP_t4		free	687.164
78	a_bgd_abs_Wf0piP_t5		free	701.172
79	a_bgd_abs_Wf0piP_t6		free	600.91
80	a_bgd_abs_Wf0piP_t7		free	517.682
81	a_bgd_abs_Wf0piP_t8		free	577.624
82	a_bgd_abs_Wf0piP_t9		free	534.973
83	a_bgd_abs_Wf0piP_t10		free	-440.187
84	a_bgd_arg_Wf0piP_t0		free	184.802
85	a_bgd_arg_Wf0piP_t1		free	203.718
86	a_bgd_arg_Wf0piP_t2		free	206.595
87	a_bgd_arg_Wf0piP_t3		free	217.505
88	a_bgd_arg_Wf0piP_t4		free	225.605
89	a_bgd_arg_Wf0piP_t5		free	226.654
90	a_bgd_arg_Wf0piP_t6		free	226.248
91	a_bgd_arg_Wf0piP_t7		free	245.124
92	a_bgd_arg_Wf0piP_t8		free	252.642
93	a_bgd_arg_Wf0piP_t9		free	274.181
94	a_bgd_arg_Wf0piP_t10		free	-53.62
95	a2_1320_M			free	1.31409
96	a2_1320_G			free	0.0921953
97	A_amp_abs_WrhopiD_t0		free	263.154
98	A_amp_abs_WrhopiD_t1		free	280.224
99	A_amp_abs_WrhopiD_t2		free	295.881
100	A_amp_abs_WrhopiD_t3		free	315.848
101	A_amp_abs_WrhopiD_t4		free	336.317
102	A_amp_abs_WrhopiD_t5		free	363.077
103	A_amp_abs_WrhopiD_t6		free	393.873
104	A_amp_abs_WrhopiD_t7		free	431.895
105	A_amp_abs_WrhopiD_t8		free	478.973
106	A_amp_abs_WrhopiD_t9		free	536.72
107	A_amp_abs_WrhopiD_t10		free	-519.448
108	A_amp_arg_WrhopiD_t0		fixed	0
109	A_amp_arg_WrhopiD_t1		fixed	0
110	A_amp_arg_WrhopiD_t2		fixed	0
111	A_amp_arg_WrhopiD_t3		fixed	0
112	A_amp_arg_WrhopiD_t4		fixed	0
113	A_amp_arg_WrhopiD_t5		fixed	0
114	A_amp_arg_WrhopiD_t6		fixed	0
115	A_amp_arg_WrhopiD_t7		fixed	0
116	A_amp_arg_WrhopiD_t8		fixed	0
117	A_amp_arg_WrhopiD_t9		fixed	0
118	A_amp_arg_WrhopiD_t10		fixed	0
119	b0rhopiD			free	-2.53558
120	c0rhopiD			free	5.71958
121	c1rhopiD			free	1.0208
122	c2rhopiD			free	-1.88492
123	a_bgd_abs_WrhopiD_t0		free	168.055
124	a_bgd_abs_WrhopiD_t1		free	128.183
125	a_bgd_abs_WrhopiD_t2		free	130.978
126	a_bgd_abs_WrhopiD_t3		free	133.524
127	a_bgd_abs_WrhopiD_t4		free	136.375
128	a_bgd_abs_WrhopiD_t5		free	146.897
129	a_bgd_abs_WrhopiD_t6		free	164.533
130	a_bgd_abs_WrhopiD_t7		free	195.307
131	a_bgd_abs_WrhopiD_t8		free	231.501
132	a_bgd_abs_WrhopiD_t9		free	-281.314
133	a_bgd_abs_WrhopiD_t10		free	-336.377
134	a_bgd_arg_WrhopiD_t0		free	3.2584
135	a_bgd_arg_WrhopiD_t1		free	-5.0315
136	a_bgd_arg_WrhopiD_t2		free	-6.82858
137	a_bgd_arg_WrhopiD_t3		free	-11.2857
138	a_bgd_arg_WrhopiD_t4		free	-14.8131
139	a_bgd_arg_WrhopiD_t5		free	-22.6616
140	a_bgd_arg_WrhopiD_t6		free	-30.6353
141	a_bgd_arg_WrhopiD_t7		free	-39.2937
142	a_bgd_arg_WrhopiD_t8		free	-41.0435
143	a_bgd_arg_WrhopiD_t9		free	-47.8441
144	a_bgd_arg_WrhopiD_t10		free	-54.148

Final parameters of the minimizer:
// Index	Name			Fixed	Value	Error
0	a1_1260_M			free	1.3073	0.000635946
1	a1_1260_G			free	0.361144	0.00128339
2	A_amp_abs_WrhopiS_t0		free	973.297	7.48041
3	A_amp_abs_WrhopiS_t1		free	950.007	7.35818
4	A_amp_abs_WrhopiS_t2		free	912.58	7.00803
5	A_amp_abs_WrhopiS_t3		free	881.965	6.6117
6	A_amp_abs_WrhopiS_t4		free	845.655	6.16633
7	A_amp_abs_WrhopiS_t5		free	813.381	5.73707
8	A_amp_abs_WrhopiS_t6		free	772.272	5.30344
9	A_amp_abs_WrhopiS_t7		free	717.875	4.88733
10	A_amp_abs_WrhopiS_t8		free	644.394	4.66011
11	A_amp_abs_WrhopiS_t9		free	446.014	5.27362
12	A_amp_abs_WrhopiS_t10		free	-133.07	5.67101
13	A_amp_arg_WrhopiS_t0		free	42.4282	0.446262
14	A_amp_arg_WrhopiS_t1		free	40.6996	0.444906
15	A_amp_arg_WrhopiS_t2		free	39.1014	0.445928
16	A_amp_arg_WrhopiS_t3		free	36.2181	0.442725
17	A_amp_arg_WrhopiS_t4		free	32.6711	0.442068
18	A_amp_arg_WrhopiS_t5		free	29.9336	0.436603
19	A_amp_arg_WrhopiS_t6		free	26.4428	0.432431
20	A_amp_arg_WrhopiS_t7		free	21.5386	0.430942
21	A_amp_arg_WrhopiS_t8		free	15.8169	0.434864
22	A_amp_arg_WrhopiS_t9		free	9.02123	0.476561
23	A_amp_arg_WrhopiS_t10		free	0.341949	1.12415
24	b0rhopiS			free	0.685189	0.0125709
25	c0rhopiS			free	4.23905	0.0248453
26	c1rhopiS			free	-9.4708	0.16362
27	c2rhopiS			free	11.088	0.352785
28	a_bgd_abs_WrhopiS_t0		free	2214.67	11.5385
29	a_bgd_abs_WrhopiS_t1		free	2078.63	11.0171
30	a_bgd_abs_WrhopiS_t2		free	1917.83	10.4747
31	a_bgd_abs_WrhopiS_t3		free	1757.27	10.0267
32	a_bgd_abs_WrhopiS_t4		free	1587.34	9.5605
33	a_bgd_abs_WrhopiS_t5		free	1406.79	9.11168
34	a_bgd_abs_WrhopiS_t6		free	1207.28	8.65063
35	a_bgd_abs_WrhopiS_t7		free	982.365	8.26547
36	a_bgd_abs_WrhopiS_t8		free	709.59	8.15862
37	a_bgd_abs_WrhopiS_t9		free	351.39	9.4999
38	a_bgd_abs_WrhopiS_t10		free	-165.177	9.52828
39	a_bgd_arg_WrhopiS_t0		free	20.4406	0.368606
40	a_bgd_arg_WrhopiS_t1		free	20.7081	0.362609
41	a_bgd_arg_WrhopiS_t2		free	21.8605	0.354923
42	a_bgd_arg_WrhopiS_t3		free	21.9481	0.348006
43	a_bgd_arg_WrhopiS_t4		free	22.3133	0.342791
44	a_bgd_arg_WrhopiS_t5		free	23.8037	0.340054
45	a_bgd_arg_WrhopiS_t6		free	25.7815	0.341589
46	a_bgd_arg_WrhopiS_t7		free	29.0522	0.350926
47	a_bgd_arg_WrhopiS_t8		free	35.8076	0.393306
48	a_bgd_arg_WrhopiS_t9		free	56.7799	0.599307
49	a_bgd_arg_WrhopiS_t10		free	824.258	1.89203
50	A_amp_abs_Wf0piP_t0		free	1158.13	13.5451
51	A_amp_abs_Wf0piP_t1		free	1115.32	13.3979
52	A_amp_abs_Wf0piP_t2		free	1127.04	12.3952
53	A_amp_abs_Wf0piP_t3		free	1153.32	12.3952
54	A_amp_abs_Wf0piP_t4		free	1162.84	11.9814
55	A_amp_abs_Wf0piP_t5		free	1115.58	11.8007
56	A_amp_abs_Wf0piP_t6		free	1057.46	11.5603
57	A_amp_abs_Wf0piP_t7		free	1085.67	10.8406
58	A_amp_abs_Wf0piP_t8		free	1025.32	10.6605
59	A_amp_abs_Wf0piP_t9		free	-702.269	10.8761
60	A_amp_abs_Wf0piP_t10		free	-204.011	8.47656
61	A_amp_arg_Wf0piP_t0		free	61.9872	0.758691
62	A_amp_arg_Wf0piP_t1		free	63.3902	0.774652
63	A_amp_arg_Wf0piP_t2		free	67.7694	0.740898
64	A_amp_arg_Wf0piP_t3		free	66.3765	0.74203
65	A_amp_arg_Wf0piP_t4		free	64.8643	0.703058
66	A_amp_arg_Wf0piP_t5		free	66.6267	0.717215
67	A_amp_arg_Wf0piP_t6		free	70.1398	0.745225
68	A_amp_arg_Wf0piP_t7		free	67.947	0.730775
69	A_amp_arg_Wf0piP_t8		free	72.6482	0.769698
70	A_amp_arg_Wf0piP_t9		free	78.166	1.09181
71	A_amp_arg_Wf0piP_t10		free	207449	2.86305
72	c0f0piP				free	10.4236	0.22217
73	a_bgd_abs_Wf0piP_t0		free	441.149	15.1718
74	a_bgd_abs_Wf0piP_t1		free	471.561	15.2348
75	a_bgd_abs_Wf0piP_t2		free	405.014	14.1545
76	a_bgd_abs_Wf0piP_t3		free	437.091	14.6549
77	a_bgd_abs_Wf0piP_t4		free	430.782	14.5661
78	a_bgd_abs_Wf0piP_t5		free	402.085	13.4029
79	a_bgd_abs_Wf0piP_t6		free	336.178	12.2282
80	a_bgd_abs_Wf0piP_t7		free	370.082	12.7016
81	a_bgd_abs_Wf0piP_t8		free	323.41	12.1983
82	a_bgd_abs_Wf0piP_t9		free	-251.375	11.3647
83	a_bgd_abs_Wf0piP_t10		free	-151.477	8.57209
84	a_bgd_arg_Wf0piP_t0		free	184.802	1.73439
85	a_bgd_arg_Wf0piP_t1		free	186.592	1.6211
86	a_bgd_arg_Wf0piP_t2		free	196.815	1.70402
87	a_bgd_arg_Wf0piP_t3		free	201.627	1.65376
88	a_bgd_arg_Wf0piP_t4		free	201.527	1.57141
89	a_bgd_arg_Wf0piP_t5		free	196.31	1.63047
90	a_bgd_arg_Wf0piP_t6		free	206.371	1.9645
91	a_bgd_arg_Wf0piP_t7		free	217.613	1.63225
92	a_bgd_arg_Wf0piP_t8		free	240.072	1.81142
93	a_bgd_arg_Wf0piP_t9		free	-75.4298	2.33097
94	a_bgd_arg_Wf0piP_t10		free	-246276	3.58024
95	a2_1320_M			free	1.31409	0.000102023
96	a2_1320_G			free	0.0921953	0.000175743
97	A_amp_abs_WrhopiD_t0		free	263.154	0.952486
98	A_amp_abs_WrhopiD_t1		free	277.716	0.966933
99	A_amp_abs_WrhopiD_t2		free	295.74	0.992626
100	A_amp_abs_WrhopiD_t3		free	313.839	1.01187
101	A_amp_abs_WrhopiD_t4		free	337.018	1.04775
102	A_amp_abs_WrhopiD_t5		free	363.709	1.0761
103	A_amp_abs_WrhopiD_t6		free	396.259	1.12662
104	A_amp_abs_WrhopiD_t7		free	438.33	1.19302
105	A_amp_abs_WrhopiD_t8		free	491.896	1.2769
106	A_amp_abs_WrhopiD_t9		free	-481.77	1.3623
107	A_amp_abs_WrhopiD_t10		free	244.353	1.43626
108	A_amp_arg_WrhopiD_t0		fixed	0	0
109	A_amp_arg_WrhopiD_t1		fixed	0	0
110	A_amp_arg_WrhopiD_t2		fixed	0	0
111	A_amp_arg_WrhopiD_t3		fixed	0	0
112	A_amp_arg_WrhopiD_t4		fixed	0	0
113	A_amp_arg_WrhopiD_t5		fixed	0	0
114	A_amp_arg_WrhopiD_t6		fixed	0	0
115	A_amp_arg_WrhopiD_t7		fixed	0	0
116	A_amp_arg_WrhopiD_t8		fixed	0	0
117	A_amp_arg_WrhopiD_t9		fixed	0	0
118	A_amp_arg_WrhopiD_t10		fixed	0	0
119	b0rhopiD			free	-2.53558	0.116652
120	c0rhopiD			free	5.71959	0.246971
121	c1rhopiD			free	1.0208	0.933941
122	c2rhopiD			free	-1.88492	1.45909
123	a_bgd_abs_WrhopiD_t0		free	168.055	5.47207
124	a_bgd_abs_WrhopiD_t1		free	171.502	5.4897
125	a_bgd_abs_WrhopiD_t2		free	171.616	5.40418
126	a_bgd_abs_WrhopiD_t3		free	173.087	5.38821
127	a_bgd_abs_WrhopiD_t4		free	175.47	5.38569
128	a_bgd_abs_WrhopiD_t5		free	177.99	5.4031
129	a_bgd_abs_WrhopiD_t6		free	178.625	5.40628
130	a_bgd_abs_WrhopiD_t7		free	188.818	5.78283
131	a_bgd_abs_WrhopiD_t8		free	-184.818	5.91538
132	a_bgd_abs_WrhopiD_t9		free	-193.348	7.47818
133	a_bgd_abs_WrhopiD_t10		free	72.2529	6.30903
134	a_bgd_arg_WrhopiD_t0		free	3.2584	0.71144
135	a_bgd_arg_WrhopiD_t1		free	3.12797	0.72043
136	a_bgd_arg_WrhopiD_t2		free	1.30774	0.766276
137	a_bgd_arg_WrhopiD_t3		free	1.26512	0.784519
138	a_bgd_arg_WrhopiD_t4		free	-1.72212	0.830036
139	a_bgd_arg_WrhopiD_t5		free	-5.37206	0.851178
140	a_bgd_arg_WrhopiD_t6		free	-11.0358	0.919501
141	a_bgd_arg_WrhopiD_t7		free	-13.1977	0.916423
142	a_bgd_arg_WrhopiD_t8		free	-25.8525	1.03721
143	a_bgd_arg_WrhopiD_t9		free	-43.7066	1.09444
144	a_bgd_arg_WrhopiD_t10		free	-45.1993	3.51321

