0.51	6.20415
0.515	8.30789
0.52	10.6579
0.525	13.6673
0.53	16.9973
0.535	21.1915
0.54	25.7861
0.545	31.4889
0.55	37.6846
0.555	45.2662
0.56	53.4472
0.565	63.351
0.57	73.9778
0.575	86.7043
0.58	100.295
0.585	116.447
0.59	133.626
0.595	153.872
0.6	175.331
0.605	200.483
0.61	227.064
0.615	258.011
0.62	290.628
0.625	328.461
0.63	368.244
0.635	414.141
0.64	462.303
0.645	517.729
0.65	575.782
0.655	642.297
0.66	711.85
0.665	791.43
0.67	874.521
0.675	969.244
0.68	1068.01
0.685	1180.55
0.69	1297.75
0.695	1430.9
0.7	1569.4
0.705	1726.8
0.71	1890.37
0.715	2075.78
0.72	2268.29
0.725	2486.75
0.73	2713.38
0.735	2970.02
0.74	3236.04
0.745	3537.86
0.75	3850.48
0.755	4204.56
0.76	4571.05
0.765	4987.21
0.77	5417.7
0.775	5905.73
0.78	6410.25
0.785	6984.04
0.79	7576.87
0.795	8249.98
0.8	8945.03
0.805	9736.97
0.81	10554.3
0.815	11483.4
0.82	12441.8
0.825	13534.7
0.83	14661.2
0.835	15941.3
0.84	17259.7
0.845	18760.2
0.85	20304
0.855	22049.3
0.86	23843.2
0.865	25866.3
0.87	27943.1
0.875	30257.4
0.88	32629.5
0.885	35251.2
0.89	37933.5
0.895	40847
0.9	43821.8
0.905	47011.2
0.91	50260.2
0.915	53679.9
0.92	57155.4
0.925	60764.7
0.93	64424.3
0.935	68173.9
0.94	71967
0.945	75812.2
0.95	79693.4
0.955	83603.9
0.96	87542.9
0.965	91476.1
0.97	95430.4
0.975	99380.5
0.98	103344
0.985	107267
0.99	111197
0.995	115104
1	119010
1.005	122855
1.01	126691
1.015	130492
1.02	134276
1.025	137986
1.03	141670
1.035	145308
1.04	148912
1.045	152427
1.05	155898
1.055	159313
1.06	162674
1.065	165928
1.07	169118
1.075	172241
1.08	175287
1.085	178203
1.09	181032
1.095	183779
1.1	186424
1.105	188914
1.11	191291
1.115	193565
1.12	195706
1.125	197670
1.13	199492
1.135	201181
1.14	202708
1.145	204035
1.15	205189
1.155	206177
1.16	206971
1.165	207548
1.17	207923
1.175	208096
1.18	208049
1.185	207771
1.19	207269
1.195	206536
1.2	205565
1.205	204361
1.21	202919
1.215	201232
1.22	199304
1.225	197152
1.23	194768
1.235	192144
1.24	189296
1.245	186251
1.25	182999
1.255	179537
1.26	175891
1.265	172089
1.27	168128
1.275	164012
1.28	159771
1.285	155426
1.29	150984
1.295	146462
1.3	141884
1.305	137258
1.31	132602
1.315	127950
1.32	123309
1.325	118670
1.33	114066
1.335	109541
1.34	105085
1.345	100670
1.35	96341.2
1.355	92149.3
1.36	88067
1.365	84051.5
1.37	80154.8
1.375	76431.2
1.38	72839.1
1.385	69325.9
1.39	65946.8
1.395	62755
1.4	59700.3
1.405	56726.1
1.41	53886.6
1.415	51231
1.42	48706.1
1.425	46255.9
1.43	43931
1.435	41775
1.44	39736
1.445	37761.8
1.45	35897.6
1.455	34181.1
1.46	32564.5
1.465	31001.1
1.47	29530.5
1.475	28184.3
1.48	26920.3
1.485	25698
1.49	24551.1
1.495	23506.5
1.5	22527.5
1.505	21579.5
1.51	20691.3
1.515	19885.4
1.52	19130.6
1.525	18397.7
1.53	17711
1.535	17089.8
1.54	16507.5
1.545	15939.6
1.55	15406.9
1.555	14925.4
1.56	14473
1.565	14029.4
1.57	13612.1
1.575	13234.2
1.58	12877.8
1.585	12526.2
1.59	12193.8
1.595	11891.5
1.6	11604.6
1.605	11320
1.61	11049.1
1.615	10800.9
1.62	10563.6
1.625	10326.9
1.63	10099.9
1.635	9889.73
1.64	9687.17
1.645	9484.14
1.65	9288
1.655	9104.24
1.66	8925.75
1.665	8746.12
1.67	8571.28
1.675	8405.69
1.68	8243.71
1.685	8080.22
1.69	7920.06
1.695	7766.91
1.7	7616.24
1.705	7463.91
1.71	7313.93
1.715	7169.45
1.72	7026.74
1.725	6882.35
1.73	6739.71
1.735	6601.54
1.74	6464.71
1.745	6326.32
1.75	6189.35
1.755	6056.14
1.76	5924.05
1.765	5790.65
1.77	5658.51
1.775	5529.64
1.78	5401.83
1.785	5273.06
1.79	5145.51
1.795	5020.85
1.8	4897.29
1.805	4773.2
1.81	4650.37
1.815	4530.14
1.82	4411.09
1.825	4291.98
1.83	4174.21
1.835	4058.78
1.84	3944.68
1.845	3831
1.85	3718.75
1.855	3608.65
1.86	3499.99
1.865	3392.2
1.87	3285.95
1.875	3181.68
1.88	3078.99
1.885	2977.54
1.89	2877.74
1.895	2779.81
1.9	2683.55
1.905	2588.85
1.91	2495.89
1.915	2404.71
1.92	2315.31
1.925	2227.68
1.93	2141.86
1.935	2057.78
1.94	1975.54
1.945	1895.22
1.95	1816.74
1.955	1740
1.96	1665.14
1.965	1592.26
1.97	1521.25
1.975	1451.98
1.98	1384.62
1.985	1319.23
1.99	1255.71
1.995	1193.95
2	1134.06
2.005	1076.12
2.01	1020.03
2.015	965.695
2.02	913.2
2.025	862.591
2.03	813.786
2.035	766.717
2.04	721.433
2.045	677.952
2.05	636.216
2.055	596.174
2.06	557.846
2.065	521.229
2.07	486.28
2.075	452.962
2.08	421.273
2.085	391.195
2.09	362.696
2.095	335.746
2.1	310.329
2.105	286.419
2.11	263.988
2.115	243.01
2.12	223.459
2.125	205.308
2.13	188.528
2.135	173.095
2.14	158.978
2.145	146.149
2.15	134.58
2.155	124.244
2.16	115.111
2.165	107.149
2.17	100.333
2.175	94.6351
2.18	90.0242
2.185	86.4683
2.19	83.941
2.195	82.4181
2.2	81.8663
2.205	82.2521
2.21	83.5514
2.215	85.7421
2.22	88.7894
2.225	92.6596
2.23	97.3307
2.235	102.782
2.24	108.979
2.245	115.888
2.25	123.488
2.255	131.761
2.26	140.672
2.265	150.189
2.27	160.294
2.275	170.966
2.28	182.175
2.285	193.891
2.29	206.096
2.295	218.768
2.3	231.88
2.305	245.407
2.31	259.33
2.315	273.625
2.32	288.272
2.325	303.247
2.33	318.53
2.335	334.1
2.34	349.939
2.345	366.023
2.35	382.336
2.355	398.86
2.36	415.576
2.365	432.46
2.37	449.497
2.375	466.682
2.38	483.99
2.385	501.388
2.39	518.874
2.395	536.455
2.4	554.098
2.405	571.754
2.41	589.44
2.415	607.18
2.42	624.927
2.425	642.615
2.43	660.278
2.435	677.965
2.44	695.61
2.445	713.13
2.45	730.58
2.455	748.027
2.46	765.39
2.465	782.568
2.47	799.635
2.475	816.683
2.48	833.609
2.485	850.3
2.49	866.847
