1	39.2099
1.005	38.7191
1.01	38.223
1.015	37.7348
1.02	37.2409
1.025	36.7605
1.03	36.2743
1.035	35.7952
1.04	35.3103
1.045	34.8388
1.05	34.3613
1.055	33.8899
1.06	33.4128
1.065	32.9499
1.07	32.4814
1.075	32.0173
1.08	31.5481
1.085	31.0951
1.09	30.6373
1.095	30.1828
1.1	29.7244
1.105	29.2846
1.11	28.8414
1.115	28.4006
1.12	27.9566
1.125	27.5299
1.13	27.0947
1.135	26.6567
1.14	26.2157
1.145	25.7961
1.15	25.3797
1.155	24.9754
1.16	24.5814
1.165	24.2181
1.17	23.8707
1.175	23.5522
1.18	23.2594
1.185	23.0092
1.19	22.7939
1.195	22.6332
1.2	22.5226
1.205	22.4748
1.21	22.4919
1.215	22.6044
1.22	22.8059
1.225	23.1046
1.23	23.5166
1.235	24.0869
1.24	24.8067
1.245	25.6795
1.25	26.7385
1.255	28.0425
1.26	29.5772
1.265	31.3369
1.27	33.3633
1.275	35.7094
1.28	38.3355
1.285	41.2054
1.29	44.3274
1.295	47.6905
1.3	51.1975
1.305	54.7627
1.31	58.3271
1.315	61.8051
1.32	65.1015
1.325	68.1583
1.33	70.9197
1.335	73.3212
1.34	75.3514
1.345	77.0196
1.35	78.2936
1.355	79.1321
1.36	79.554
1.365	79.5716
1.37	79.1355
1.375	78.1918
1.38	76.7537
1.385	74.8454
1.39	72.4735
1.395	69.6882
1.4	66.6253
1.405	63.4251
1.41	60.1761
1.415	56.9489
1.42	53.8325
1.425	50.8858
1.43	48.1122
1.435	45.5027
1.44	43.0723
1.445	40.8248
1.45	38.7322
1.455	36.7679
1.46	34.9328
1.465	33.2248
1.47	31.6185
1.475	30.0917
1.48	28.6471
1.485	27.286
1.49	25.9897
1.495	24.7418
1.5	23.5478
1.505	22.4123
1.51	21.3205
1.515	20.2593
1.52	19.2361
1.525	18.257
1.53	17.3095
1.535	16.3824
1.54	15.4837
1.545	14.6206
1.55	13.7817
1.555	12.9566
1.56	12.1538
1.565	11.3813
1.57	10.6282
1.575	9.88429
1.58	9.15865
1.585	8.45964
1.59	7.77659
1.595	7.0997
1.6	6.43814
1.605	5.80036
1.61	5.17617
1.615	4.55595
1.62	3.94871
1.625	3.36316
1.63	2.78909
1.635	2.21761
1.64	1.65723
1.645	1.11674
1.65	0.586192
1.655	0.0571895
1.66	-0.461931
1.665	-0.963453
1.67	-1.45571
1.675	-1.94736
1.68	-2.43024
1.685	-2.89681
1.69	-3.35582
1.695	-3.81426
1.7	-4.26449
1.705	-4.70044
1.71	-5.12975
1.715	-5.55844
1.72	-5.97984
1.725	-6.38834
1.73	-6.79053
1.735	-7.1921
1.74	-7.58768
1.745	-7.97226
1.75	-8.35103
1.755	-8.72856
1.76	-9.10036
1.765	-9.46232
1.77	-9.81906
1.775	-10.1746
1.78	-10.5251
1.785	-10.867
1.79	-11.2043
1.795	-11.5402
1.8	-11.8713
1.805	-12.1946
1.81	-12.513
1.815	-12.8294
1.82	-13.1416
1.825	-13.4479
1.83	-13.752
1.835	-14.0554
1.84	-14.3534
1.845	-14.642
1.85	-14.9264
1.855	-15.2136
1.86	-15.5006
1.865	-15.7771
1.87	-16.0448
1.875	-16.318
1.88	-16.5934
1.885	-16.8526
1.89	-17.1083
1.895	-17.3768
1.9	-17.6304
1.905	-17.8745
1.91	-18.1352
1.915	-18.3746
1.92	-18.6176
1.925	-18.869
1.93	-19.0901
1.935	-19.3429
1.94	-19.5649
1.945	-19.8004
1.95	-20.0289
1.955	-20.2484
1.96	-20.4841
1.965	-20.6893
1.97	-20.9241
1.975	-21.1237
1.98	-21.3543
1.985	-21.553
1.99	-21.7674
1.995	-21.9796
2	-22.168
2.005	-22.4014
2.01	-22.562
2.015	-22.8015
2.02	-22.9745
2.025	-23.1641
2.03	-23.3926
2.035	-23.5362
2.04	-23.7567
2.045	-23.9588
2.05	-24.0938
