0.51	-44.6058
0.515	-44.6078
0.52	-44.6101
0.525	-44.6126
0.53	-44.6154
0.535	-44.6185
0.54	-44.6219
0.545	-44.6255
0.55	-44.6295
0.555	-44.6339
0.56	-44.6386
0.565	-44.6437
0.57	-44.6493
0.575	-44.6552
0.58	-44.6616
0.585	-44.6685
0.59	-44.6759
0.595	-44.6838
0.6	-44.6923
0.605	-44.7013
0.61	-44.711
0.615	-44.7213
0.62	-44.7323
0.625	-44.7441
0.63	-44.7565
0.635	-44.7698
0.64	-44.784
0.645	-44.799
0.65	-44.8149
0.655	-44.8319
0.66	-44.8499
0.665	-44.869
0.67	-44.8893
0.675	-44.9108
0.68	-44.9336
0.685	-44.9578
0.69	-44.9835
0.695	-45.0107
0.7	-45.0394
0.705	-45.0697
0.71	-45.1017
0.715	-45.1355
0.72	-45.1712
0.725	-45.2088
0.73	-45.2486
0.735	-45.2906
0.74	-45.335
0.745	-45.382
0.75	-45.4318
0.755	-45.4844
0.76	-45.5403
0.765	-45.5996
0.77	-45.6626
0.775	-45.7295
0.78	-45.8008
0.785	-45.8768
0.79	-45.9578
0.795	-46.0443
0.8	-46.1369
0.805	-46.2359
0.81	-46.342
0.815	-46.4558
0.82	-46.578
0.825	-46.7094
0.83	-46.8507
0.835	-47.0029
0.84	-47.167
0.845	-47.3438
0.85	-47.5347
0.855	-47.7406
0.86	-47.9628
0.865	-48.2026
0.87	-48.4613
0.875	-48.7399
0.88	-49.0398
0.885	-49.3619
0.89	-49.7071
0.895	-50.0762
0.9	-50.4695
0.905	-50.887
0.91	-51.3287
0.915	-51.7937
0.92	-52.2812
0.925	-52.79
0.93	-53.3186
0.935	-53.8654
0.94	-54.4286
0.945	-55.0066
0.95	-55.5976
0.955	-56.2
0.96	-56.8123
0.965	-57.4332
0.97	-58.0614
0.975	-58.696
0.98	-59.3359
0.985	-59.9804
0.99	-60.6288
0.995	-61.2805
1	-61.935
1.005	-62.592
1.01	-63.2509
1.015	-63.9116
1.02	-64.5736
1.025	-65.2369
1.03	-65.901
1.035	-66.5659
1.04	-67.2313
1.045	-67.897
1.05	-68.5627
1.055	-69.2283
1.06	-69.8934
1.065	-70.5579
1.07	-71.2215
1.075	-71.8837
1.08	-72.5443
1.085	-73.2028
1.09	-73.8587
1.095	-74.5116
1.1	-75.1608
1.105	-75.8057
1.11	-76.4455
1.115	-77.0792
1.12	-77.706
1.125	-78.3247
1.13	-78.9341
1.135	-79.5326
1.14	-80.1188
1.145	-80.6907
1.15	-81.2462
1.155	-81.7831
1.16	-82.2986
1.165	-82.7899
1.17	-83.2534
1.175	-83.6854
1.18	-84.0815
1.185	-84.4369
1.19	-84.746
1.195	-85.0026
1.2	-85.1997
1.205	-85.3293
1.21	-85.3823
1.215	-85.3488
1.22	-85.2172
1.225	-84.9749
1.23	-84.6075
1.235	-84.0991
1.24	-83.4323
1.245	-82.5879
1.25	-81.5456
1.255	-80.2838
1.26	-78.7811
1.265	-77.0166
1.27	-74.9723
1.275	-72.635
1.28	-69.9992
1.285	-67.0705
1.29	-63.8687
1.295	-60.4299
1.3	-56.8072
1.305	-53.0685
1.31	-49.2916
1.315	-45.5574
1.32	-41.942
1.325	-38.5104
1.33	-35.3119
1.335	-32.3789
1.34	-29.7281
1.345	-27.3624
1.35	-25.2745
1.355	-23.4503
1.36	-21.8713
1.365	-20.5168
1.37	-19.3656
1.375	-18.3967
1.38	-17.5905
1.385	-16.9288
1.39	-16.3946
1.395	-15.9731
1.4	-15.6506
1.405	-15.4151
1.41	-15.2559
1.415	-15.1635
1.42	-15.1295
1.425	-15.1466
1.43	-15.208
1.435	-15.3082
1.44	-15.4419
1.445	-15.6047
1.45	-15.7926
1.455	-16.0021
1.46	-16.23
1.465	-16.4737
1.47	-16.7306
1.475	-16.9988
1.48	-17.2761
1.485	-17.5611
1.49	-17.8521
1.495	-18.148
1.5	-18.4474
1.505	-18.7495
1.51	-19.0532
1.515	-19.3579
1.52	-19.6628
1.525	-19.9673
1.53	-20.2708
1.535	-20.573
1.54	-20.8733
1.545	-21.1715
1.55	-21.4672
1.555	-21.7601
1.56	-22.0501
1.565	-22.3369
1.57	-22.6204
1.575	-22.9004
1.58	-23.1768
1.585	-23.4496
1.59	-23.7186
1.595	-23.9838
1.6	-24.2452
1.605	-24.5026
1.61	-24.7562
1.615	-25.0059
1.62	-25.2517
1.625	-25.4936
1.63	-25.7317
1.635	-25.9658
1.64	-26.1962
1.645	-26.4228
1.65	-26.6457
1.655	-26.8648
1.66	-27.0803
1.665	-27.2921
1.67	-27.5004
1.675	-27.7052
1.68	-27.9065
1.685	-28.1044
1.69	-28.299
1.695	-28.4903
1.7	-28.6783
1.705	-28.8631
1.71	-29.0448
1.715	-29.2234
1.72	-29.399
1.725	-29.5716
1.73	-29.7413
1.735	-29.9081
1.74	-30.0721
1.745	-30.2334
1.75	-30.392
1.755	-30.5479
1.76	-30.7013
1.765	-30.8521
1.77	-31.0004
1.775	-31.1462
1.78	-31.2897
1.785	-31.4308
1.79	-31.5696
1.795	-31.7062
1.8	-31.8405
1.805	-31.9727
1.81	-32.1027
1.815	-32.2307
1.82	-32.3566
1.825	-32.4805
1.83	-32.6025
1.835	-32.7225
1.84	-32.8407
1.845	-32.957
1.85	-33.0715
1.855	-33.1843
1.86	-33.2953
1.865	-33.4046
1.87	-33.5122
1.875	-33.6182
1.88	-33.7226
1.885	-33.8254
1.89	-33.9267
1.895	-34.0265
1.9	-34.1247
1.905	-34.2216
1.91	-34.317
1.915	-34.411
1.92	-34.5036
1.925	-34.5949
1.93	-34.6849
1.935	-34.7736
1.94	-34.861
1.945	-34.9472
1.95	-35.0322
1.955	-35.1159
1.96	-35.1985
1.965	-35.2799
1.97	-35.3602
1.975	-35.4394
1.98	-35.5175
1.985	-35.5945
1.99	-35.6705
1.995	-35.7455
2	-35.8194
2.005	-35.8923
2.01	-35.9643
2.015	-36.0353
2.02	-36.1054
2.025	-36.1745
2.03	-36.2427
2.035	-36.3101
2.04	-36.3765
2.045	-36.4422
2.05	-36.5069
2.055	-36.5708
2.06	-36.634
2.065	-36.6963
2.07	-36.7578
2.075	-36.8186
2.08	-36.8785
2.085	-36.9378
2.09	-36.9963
2.095	-37.0541
2.1	-37.1112
2.105	-37.1675
2.11	-37.2232
2.115	-37.2782
2.12	-37.3326
2.125	-37.3863
2.13	-37.4393
2.135	-37.4917
2.14	-37.5435
2.145	-37.5947
2.15	-37.6453
2.155	-37.6953
2.16	-37.7447
2.165	-37.7936
2.17	-37.8418
2.175	-37.8895
2.18	-37.9367
2.185	-37.9833
2.19	-38.0295
2.195	-38.075
2.2	-38.1201
2.205	-38.1647
2.21	-38.2087
2.215	-38.2523
2.22	-38.2954
2.225	-38.338
2.23	-38.3802
2.235	-38.4219
2.24	-38.4631
2.245	-38.5039
2.25	-38.5443
2.255	-38.5842
2.26	-38.6237
2.265	-38.6628
2.27	-38.7014
2.275	-38.7397
2.28	-38.7776
2.285	-38.815
2.29	-38.8521
2.295	-38.8887
2.3	-38.925
2.305	-38.961
2.31	-38.9965
2.315	-39.0317
2.32	-39.0666
2.325	-39.101
2.33	-39.1352
2.335	-39.169
2.34	-39.2024
2.345	-39.2355
2.35	-39.2683
2.355	-39.3008
2.36	-39.3329
2.365	-39.3648
2.37	-39.3963
2.375	-39.4275
2.38	-39.4584
2.385	-39.489
2.39	-39.5193
2.395	-39.5493
2.4	-39.5791
2.405	-39.6085
2.41	-39.6377
2.415	-39.6666
2.42	-39.6952
2.425	-39.7235
2.43	-39.7516
2.435	-39.7795
2.44	-39.807
2.445	-39.8343
2.45	-39.8614
2.455	-39.8882
2.46	-39.9148
2.465	-39.9411
2.47	-39.9672
2.475	-39.993
2.48	-40.0187
2.485	-40.044
2.49	-40.0692
