0.51	0
0.515	0
0.52	0
0.525	0
0.53	0
0.535	0
0.54	0
0.545	0
0.55	0
0.555	0
0.56	0
0.565	0
0.57	0
0.575	0
0.58	0
0.585	0
0.59	0
0.595	0
0.6	0
0.605	0
0.61	0
0.615	0
0.62	0
0.625	0
0.63	0
0.635	0
0.64	0
0.645	0
0.65	0
0.655	0
0.66	0
0.665	0
0.67	0
0.675	0
0.68	0
0.685	0
0.69	0
0.695	0
0.7	0
0.705	0
0.71	0
0.715	0
0.72	0
0.725	0
0.73	0
0.735	0
0.74	0
0.745	0
0.75	0
0.755	0
0.76	0
0.765	0
0.77	0
0.775	0
0.78	0
0.785	0
0.79	0
0.795	0
0.8	0
0.805	0
0.81	0
0.815	0
0.82	0
0.825	0
0.83	0
0.835	0
0.84	0
0.845	0
0.85	0
0.855	0
0.86	0
0.865	0
0.87	0
0.875	0
0.88	0
0.885	0
0.89	0
0.895	0
0.9	0
0.905	0
0.91	0
0.915	0
0.92	0
0.925	0
0.93	0
0.935	0
0.94	0
0.945	0
0.95	0
0.955	0
0.96	0
0.965	0
0.97	0
0.975	0
0.98	0
0.985	0
0.99	0
0.995	0
1	57.2445
1.005	56.7114
1.01	56.1779
1.015	55.6444
1.02	55.1111
1.025	54.5782
1.03	54.046
1.035	53.5145
1.04	52.984
1.045	52.4547
1.05	51.9266
1.055	51.4
1.06	50.8751
1.065	50.352
1.07	49.831
1.075	49.3124
1.08	48.7965
1.085	48.2834
1.09	47.7737
1.095	47.2676
1.1	46.7655
1.105	46.2679
1.11	45.775
1.115	45.287
1.12	44.8035
1.125	44.3229
1.13	43.842
1.135	43.3612
1.14	42.8849
1.145	42.4166
1.15	41.9595
1.155	41.5164
1.16	41.0901
1.165	40.6839
1.17	40.3012
1.175	39.9458
1.18	39.6219
1.185	39.3342
1.19	39.0882
1.195	38.8898
1.2	38.7459
1.205	38.6642
1.21	38.6532
1.215	38.7229
1.22	38.8841
1.225	39.1492
1.23	39.5321
1.235	40.048
1.24	40.714
1.245	41.5483
1.25	42.5707
1.255	43.8017
1.26	45.2621
1.265	46.9715
1.27	48.9467
1.275	51.1996
1.28	53.7341
1.285	56.5425
1.29	59.6031
1.295	62.877
1.3	66.3082
1.305	69.8252
1.31	73.3459
1.315	76.7847
1.32	80.0595
1.325	83.0985
1.33	85.8438
1.335	88.2527
1.34	90.2961
1.345	91.955
1.35	93.217
1.355	94.0718
1.36	94.5075
1.365	94.5079
1.37	94.052
1.375	93.116
1.38	91.6813
1.385	89.7478
1.39	87.3495
1.395	84.5618
1.4	81.493
1.405	78.2634
1.41	74.9848
1.415	71.7483
1.42	68.6201
1.425	65.6429
1.43	62.8392
1.435	60.2164
1.44	57.771
1.445	55.4938
1.45	53.3722
1.455	51.3928
1.46	49.5417
1.465	47.8057
1.47	46.1722
1.475	44.6302
1.48	43.1699
1.485	41.7828
1.49	40.4614
1.495	39.1992
1.5	37.9908
1.505	36.8313
1.51	35.7165
1.515	34.6426
1.52	33.6067
1.525	32.6057
1.53	31.6373
1.535	30.6993
1.54	29.7896
1.545	28.9066
1.55	28.0487
1.555	27.2145
1.56	26.4027
1.565	25.6122
1.57	24.8418
1.575	24.0907
1.58	23.3579
1.585	22.6426
1.59	21.944
1.595	21.2615
1.6	20.5944
1.605	19.942
1.61	19.3038
1.615	18.6793
1.62	18.0679
1.625	17.4693
1.63	16.8828
1.635	16.3083
1.64	15.7449
1.645	15.1929
1.65	14.6513
1.655	14.1202
1.66	13.599
1.665	13.0874
1.67	12.5855
1.675	12.0924
1.68	11.6082
1.685	11.1329
1.69	10.6656
1.695	10.2063
1.7	9.75521
1.705	9.31187
1.71	8.87552
1.715	8.44628
1.72	8.02443
1.725	7.60976
1.73	7.20171
1.735	6.79986
1.74	6.40409
1.745	6.01441
1.75	5.63082
1.755	5.25324
1.76	4.88148
1.765	4.51536
1.77	4.15471
1.775	3.79932
1.78	3.44905
1.785	3.10379
1.79	2.76339
1.795	2.42779
1.8	2.09706
1.805	1.77126
1.81	1.45043
1.815	1.13446
1.82	0.822823
1.825	0.514475
1.83	0.208605
1.835	-0.0941297
1.84	-0.391389
1.845	-0.681558
1.85	-0.967308
1.855	-1.2537
1.86	-1.53975
1.865	-1.81734
1.87	-2.08605
1.875	-2.35825
1.88	-2.63254
1.885	-2.89254
1.89	-3.14888
1.895	-3.41623
1.9	-3.6685
1.905	-3.91316
1.91	-4.17426
1.915	-4.41234
1.92	-4.65394
1.925	-4.90563
1.93	-5.1269
1.935	-5.37819
1.94	-5.59864
1.945	-5.83423
1.95	-6.0627
1.955	-6.28066
1.96	-6.51475
1.965	-6.71984
1.97	-6.95435
1.975	-7.15232
1.98	-7.3813
1.985	-7.57967
1.99	-7.79366
1.995	-8.00427
2	-8.19095
2.005	-8.42377
2.01	-8.58385
2.015	-8.82165
2.02	-8.99294
2.025	-9.18195
2.03	-9.40974
2.035	-9.5516
2.04	-9.77047
2.045	-9.97168
2.05	-10.1058
2.055	-10.3304
2.06	-10.5268
2.065	-10.6489
2.07	-10.8521
2.075	-11.0725
2.08	-11.1942
2.085	-11.3406
2.09	-11.5788
2.095	-11.7617
2.1	-0
2.105	-0
2.11	-0
2.115	-0
2.12	-0
2.125	-0
2.13	-0
2.135	-0
2.14	-0
2.145	-0
2.15	-0
2.155	-0
2.16	-0
2.165	-0
2.17	-0
2.175	-0
2.18	-0
2.185	-0
2.19	-0
2.195	-0
2.2	-0
2.205	-0
2.21	-0
2.215	-0
2.22	-0
2.225	-0
2.23	-0
2.235	-0
2.24	-0
2.245	-0
2.25	-0
2.255	-0
2.26	-0
2.265	-0
2.27	-0
2.275	-0
2.28	-0
2.285	-0
2.29	-0
2.295	-0
2.3	-0
2.305	-0
2.31	-0
2.315	-0
2.32	-0
2.325	-0
2.33	-0
2.335	-0
2.34	-0
2.345	-0
2.35	-0
2.355	-0
2.36	-0
2.365	-0
2.37	-0
2.375	-0
2.38	-0
2.385	-0
2.39	-0
2.395	-0
2.4	-0
2.405	-0
2.41	-0
2.415	-0
2.42	-0
2.425	-0
2.43	-0
2.435	-0
2.44	-0
2.445	-0
2.45	-0
2.455	-0
2.46	-0
2.465	-0
2.47	-0
2.475	-0
2.48	-0
2.485	-0
2.49	-0
